('C:\\Users\\Alex\\PycharmProjects\\untitled\\build\\gui\\out00-PYZ.pyz',
 [('win32com',
   'C:\\Users\\Alex\\PycharmProjects\\untitled\\venv\\lib\\site-packages\\win32com\\__init__.py',
   'PYMODULE'),
  ('win32com.server.util',
   'C:\\Users\\Alex\\PycharmProjects\\untitled\\venv\\lib\\site-packages\\win32com\\server\\util.py',
   'PYMODULE'),
  ('win32com.server.dispatcher',
   'C:\\Users\\Alex\\PycharmProjects\\untitled\\venv\\lib\\site-packages\\win32com\\server\\dispatcher.py',
   'PYMODULE'),
  ('win32traceutil',
   'C:\\Users\\Alex\\PycharmProjects\\untitled\\venv\\lib\\site-packages\\win32\\lib\\win32traceutil.py',
   'PYMODULE'),
  ('win32com.util',
   'C:\\Users\\Alex\\PycharmProjects\\untitled\\venv\\lib\\site-packages\\win32com\\util.py',
   'PYMODULE'),
  ('win32con',
   'C:\\Users\\Alex\\PycharmProjects\\untitled\\venv\\lib\\site-packages\\win32\\lib\\win32con.py',
   'PYMODULE'),
  ('win32com.server.exception',
   'C:\\Users\\Alex\\PycharmProjects\\untitled\\venv\\lib\\site-packages\\win32com\\server\\exception.py',
   'PYMODULE'),
  ('winerror',
   'C:\\Users\\Alex\\PycharmProjects\\untitled\\venv\\lib\\site-packages\\win32\\lib\\winerror.py',
   'PYMODULE'),
  ('win32com.server.policy',
   'C:\\Users\\Alex\\PycharmProjects\\untitled\\venv\\lib\\site-packages\\win32com\\server\\policy.py',
   'PYMODULE'),
  ('win32com.client',
   'C:\\Users\\Alex\\PycharmProjects\\untitled\\venv\\lib\\site-packages\\win32com\\client\\__init__.py',
   'PYMODULE'),
  ('win32com.client.makepy',
   'C:\\Users\\Alex\\PycharmProjects\\untitled\\venv\\lib\\site-packages\\win32com\\client\\makepy.py',
   'PYMODULE'),
  ('pywin.dialogs.status',
   'C:\\Users\\Alex\\PycharmProjects\\untitled\\venv\\lib\\site-packages\\Pythonwin\\pywin\\dialogs\\status.py',
   'PYMODULE'),
  ('pywin.mfc.thread',
   'C:\\Users\\Alex\\PycharmProjects\\untitled\\venv\\lib\\site-packages\\Pythonwin\\pywin\\mfc\\thread.py',
   'PYMODULE'),
  ('pywin.mfc.object',
   'C:\\Users\\Alex\\PycharmProjects\\untitled\\venv\\lib\\site-packages\\Pythonwin\\pywin\\mfc\\object.py',
   'PYMODULE'),
  ('pywin.mfc.dialog',
   'C:\\Users\\Alex\\PycharmProjects\\untitled\\venv\\lib\\site-packages\\Pythonwin\\pywin\\mfc\\dialog.py',
   'PYMODULE'),
  ('pywin.mfc.window',
   'C:\\Users\\Alex\\PycharmProjects\\untitled\\venv\\lib\\site-packages\\Pythonwin\\pywin\\mfc\\window.py',
   'PYMODULE'),
  ('pywin.mfc',
   'C:\\Users\\Alex\\PycharmProjects\\untitled\\venv\\lib\\site-packages\\Pythonwin\\pywin\\mfc\\__init__.py',
   'PYMODULE'),
  ('pywin.dialogs',
   'C:\\Users\\Alex\\PycharmProjects\\untitled\\venv\\lib\\site-packages\\Pythonwin\\pywin\\dialogs\\__init__.py',
   'PYMODULE'),
  ('pywin',
   'C:\\Users\\Alex\\PycharmProjects\\untitled\\venv\\lib\\site-packages\\Pythonwin\\pywin\\__init__.py',
   'PYMODULE'),
  ('win32com.client.gencache',
   'C:\\Users\\Alex\\PycharmProjects\\untitled\\venv\\lib\\site-packages\\win32com\\client\\gencache.py',
   'PYMODULE'),
  ('win32com.client.selecttlb',
   'C:\\Users\\Alex\\PycharmProjects\\untitled\\venv\\lib\\site-packages\\win32com\\client\\selecttlb.py',
   'PYMODULE'),
  ('pywin.dialogs.list',
   'C:\\Users\\Alex\\PycharmProjects\\untitled\\venv\\lib\\site-packages\\Pythonwin\\pywin\\dialogs\\list.py',
   'PYMODULE'),
  ('commctrl',
   'C:\\Users\\Alex\\PycharmProjects\\untitled\\venv\\lib\\site-packages\\win32\\lib\\commctrl.py',
   'PYMODULE'),
  ('win32com.client.genpy',
   'C:\\Users\\Alex\\PycharmProjects\\untitled\\venv\\lib\\site-packages\\win32com\\client\\genpy.py',
   'PYMODULE'),
  ('win32com.client.CLSIDToClass',
   'C:\\Users\\Alex\\PycharmProjects\\untitled\\venv\\lib\\site-packages\\win32com\\client\\CLSIDToClass.py',
   'PYMODULE'),
  ('win32com.client.dynamic',
   'C:\\Users\\Alex\\PycharmProjects\\untitled\\venv\\lib\\site-packages\\win32com\\client\\dynamic.py',
   'PYMODULE'),
  ('win32com.client.build',
   'C:\\Users\\Alex\\PycharmProjects\\untitled\\venv\\lib\\site-packages\\win32com\\client\\build.py',
   'PYMODULE'),
  ('pywintypes',
   'C:\\Users\\Alex\\PycharmProjects\\untitled\\venv\\lib\\site-packages\\win32\\lib\\pywintypes.py',
   'PYMODULE'),
  ('distutils.sysconfig',
   'C:\\Users\\Alex\\AppData\\Local\\Programs\\Python\\Python36-32\\lib\\distutils\\sysconfig.py',
   'PYMODULE'),
  ('distutils',
   'C:\\Users\\Alex\\AppData\\Local\\Programs\\Python\\Python36-32\\lib\\distutils\\__init__.py',
   'PYMODULE'),
  ('distutils.archive_util',
   'C:\\Users\\Alex\\AppData\\Local\\Programs\\Python\\Python36-32\\lib\\distutils\\archive_util.py',
   'PYMODULE'),
  ('distutils.dir_util',
   'C:\\Users\\Alex\\AppData\\Local\\Programs\\Python\\Python36-32\\lib\\distutils\\dir_util.py',
   'PYMODULE'),
  ('distutils.file_util',
   'C:\\Users\\Alex\\AppData\\Local\\Programs\\Python\\Python36-32\\lib\\distutils\\file_util.py',
   'PYMODULE'),
  ('distutils.dep_util',
   'C:\\Users\\Alex\\AppData\\Local\\Programs\\Python\\Python36-32\\lib\\distutils\\dep_util.py',
   'PYMODULE'),
  ('distutils.spawn',
   'C:\\Users\\Alex\\AppData\\Local\\Programs\\Python\\Python36-32\\lib\\distutils\\spawn.py',
   'PYMODULE'),
  ('distutils.debug',
   'C:\\Users\\Alex\\AppData\\Local\\Programs\\Python\\Python36-32\\lib\\distutils\\debug.py',
   'PYMODULE'),
  ('distutils.ccompiler',
   'C:\\Users\\Alex\\AppData\\Local\\Programs\\Python\\Python36-32\\lib\\distutils\\ccompiler.py',
   'PYMODULE'),
  ('distutils.fancy_getopt',
   'C:\\Users\\Alex\\AppData\\Local\\Programs\\Python\\Python36-32\\lib\\distutils\\fancy_getopt.py',
   'PYMODULE'),
  ('distutils.util',
   'C:\\Users\\Alex\\AppData\\Local\\Programs\\Python\\Python36-32\\lib\\distutils\\util.py',
   'PYMODULE'),
  ('distutils.filelist',
   'C:\\Users\\Alex\\AppData\\Local\\Programs\\Python\\Python36-32\\lib\\distutils\\filelist.py',
   'PYMODULE'),
  ('lib2to3.refactor',
   'C:\\Users\\Alex\\AppData\\Local\\Programs\\Python\\Python36-32\\lib\\lib2to3\\refactor.py',
   'PYMODULE'),
  ('multiprocessing',
   'C:\\Users\\Alex\\AppData\\Local\\Programs\\Python\\Python36-32\\lib\\multiprocessing\\__init__.py',
   'PYMODULE'),
  ('multiprocessing.spawn',
   'C:\\Users\\Alex\\AppData\\Local\\Programs\\Python\\Python36-32\\lib\\multiprocessing\\spawn.py',
   'PYMODULE'),
  ('runpy',
   'C:\\Users\\Alex\\AppData\\Local\\Programs\\Python\\Python36-32\\lib\\runpy.py',
   'PYMODULE'),
  ('multiprocessing.semaphore_tracker',
   'C:\\Users\\Alex\\AppData\\Local\\Programs\\Python\\Python36-32\\lib\\multiprocessing\\semaphore_tracker.py',
   'PYMODULE'),
  ('multiprocessing.pool',
   'C:\\Users\\Alex\\AppData\\Local\\Programs\\Python\\Python36-32\\lib\\multiprocessing\\pool.py',
   'PYMODULE'),
  ('multiprocessing.dummy',
   'C:\\Users\\Alex\\AppData\\Local\\Programs\\Python\\Python36-32\\lib\\multiprocessing\\dummy\\__init__.py',
   'PYMODULE'),
  ('multiprocessing.dummy.connection',
   'C:\\Users\\Alex\\AppData\\Local\\Programs\\Python\\Python36-32\\lib\\multiprocessing\\dummy\\connection.py',
   'PYMODULE'),
  ('queue',
   'C:\\Users\\Alex\\AppData\\Local\\Programs\\Python\\Python36-32\\lib\\queue.py',
   'PYMODULE'),
  ('multiprocessing.reduction',
   'C:\\Users\\Alex\\AppData\\Local\\Programs\\Python\\Python36-32\\lib\\multiprocessing\\reduction.py',
   'PYMODULE'),
  ('multiprocessing.resource_sharer',
   'C:\\Users\\Alex\\AppData\\Local\\Programs\\Python\\Python36-32\\lib\\multiprocessing\\resource_sharer.py',
   'PYMODULE'),
  ('multiprocessing.connection',
   'C:\\Users\\Alex\\AppData\\Local\\Programs\\Python\\Python36-32\\lib\\multiprocessing\\connection.py',
   'PYMODULE'),
  ('xmlrpc.client',
   'C:\\Users\\Alex\\AppData\\Local\\Programs\\Python\\Python36-32\\lib\\xmlrpc\\client.py',
   'PYMODULE'),
  ('xmlrpc',
   'C:\\Users\\Alex\\AppData\\Local\\Programs\\Python\\Python36-32\\lib\\xmlrpc\\__init__.py',
   'PYMODULE'),
  ('decimal',
   'C:\\Users\\Alex\\AppData\\Local\\Programs\\Python\\Python36-32\\lib\\decimal.py',
   'PYMODULE'),
  ('_pydecimal',
   'C:\\Users\\Alex\\AppData\\Local\\Programs\\Python\\Python36-32\\lib\\_pydecimal.py',
   'PYMODULE'),
  ('numbers',
   'C:\\Users\\Alex\\AppData\\Local\\Programs\\Python\\Python36-32\\lib\\numbers.py',
   'PYMODULE'),
  ('hmac',
   'C:\\Users\\Alex\\AppData\\Local\\Programs\\Python\\Python36-32\\lib\\hmac.py',
   'PYMODULE'),
  ('multiprocessing.context',
   'C:\\Users\\Alex\\AppData\\Local\\Programs\\Python\\Python36-32\\lib\\multiprocessing\\context.py',
   'PYMODULE'),
  ('multiprocessing.popen_spawn_win32',
   'C:\\Users\\Alex\\AppData\\Local\\Programs\\Python\\Python36-32\\lib\\multiprocessing\\popen_spawn_win32.py',
   'PYMODULE'),
  ('multiprocessing.popen_forkserver',
   'C:\\Users\\Alex\\AppData\\Local\\Programs\\Python\\Python36-32\\lib\\multiprocessing\\popen_forkserver.py',
   'PYMODULE'),
  ('multiprocessing.popen_spawn_posix',
   'C:\\Users\\Alex\\AppData\\Local\\Programs\\Python\\Python36-32\\lib\\multiprocessing\\popen_spawn_posix.py',
   'PYMODULE'),
  ('multiprocessing.popen_fork',
   'C:\\Users\\Alex\\AppData\\Local\\Programs\\Python\\Python36-32\\lib\\multiprocessing\\popen_fork.py',
   'PYMODULE'),
  ('multiprocessing.forkserver',
   'C:\\Users\\Alex\\AppData\\Local\\Programs\\Python\\Python36-32\\lib\\multiprocessing\\forkserver.py',
   'PYMODULE'),
  ('multiprocessing.sharedctypes',
   'C:\\Users\\Alex\\AppData\\Local\\Programs\\Python\\Python36-32\\lib\\multiprocessing\\sharedctypes.py',
   'PYMODULE'),
  ('multiprocessing.heap',
   'C:\\Users\\Alex\\AppData\\Local\\Programs\\Python\\Python36-32\\lib\\multiprocessing\\heap.py',
   'PYMODULE'),
  ('ctypes',
   'C:\\Users\\Alex\\AppData\\Local\\Programs\\Python\\Python36-32\\lib\\ctypes\\__init__.py',
   'PYMODULE'),
  ('ctypes.wintypes',
   'C:\\Users\\Alex\\AppData\\Local\\Programs\\Python\\Python36-32\\lib\\ctypes\\wintypes.py',
   'PYMODULE'),
  ('ctypes._endian',
   'C:\\Users\\Alex\\AppData\\Local\\Programs\\Python\\Python36-32\\lib\\ctypes\\_endian.py',
   'PYMODULE'),
  ('multiprocessing.queues',
   'C:\\Users\\Alex\\AppData\\Local\\Programs\\Python\\Python36-32\\lib\\multiprocessing\\queues.py',
   'PYMODULE'),
  ('multiprocessing.synchronize',
   'C:\\Users\\Alex\\AppData\\Local\\Programs\\Python\\Python36-32\\lib\\multiprocessing\\synchronize.py',
   'PYMODULE'),
  ('multiprocessing.managers',
   'C:\\Users\\Alex\\AppData\\Local\\Programs\\Python\\Python36-32\\lib\\multiprocessing\\managers.py',
   'PYMODULE'),
  ('multiprocessing.util',
   'C:\\Users\\Alex\\AppData\\Local\\Programs\\Python\\Python36-32\\lib\\multiprocessing\\util.py',
   'PYMODULE'),
  ('multiprocessing.process',
   'C:\\Users\\Alex\\AppData\\Local\\Programs\\Python\\Python36-32\\lib\\multiprocessing\\process.py',
   'PYMODULE'),
  ('lib2to3.btm_matcher',
   'C:\\Users\\Alex\\AppData\\Local\\Programs\\Python\\Python36-32\\lib\\lib2to3\\btm_matcher.py',
   'PYMODULE'),
  ('lib2to3.btm_utils',
   'C:\\Users\\Alex\\AppData\\Local\\Programs\\Python\\Python36-32\\lib\\lib2to3\\btm_utils.py',
   'PYMODULE'),
  ('lib2to3.pgen2.grammar',
   'C:\\Users\\Alex\\AppData\\Local\\Programs\\Python\\Python36-32\\lib\\lib2to3\\pgen2\\grammar.py',
   'PYMODULE'),
  ('lib2to3.pygram',
   'C:\\Users\\Alex\\AppData\\Local\\Programs\\Python\\Python36-32\\lib\\lib2to3\\pygram.py',
   'PYMODULE'),
  ('lib2to3.pytree',
   'C:\\Users\\Alex\\AppData\\Local\\Programs\\Python\\Python36-32\\lib\\lib2to3\\pytree.py',
   'PYMODULE'),
  ('lib2to3',
   'C:\\Users\\Alex\\AppData\\Local\\Programs\\Python\\Python36-32\\lib\\lib2to3\\__init__.py',
   'PYMODULE'),
  ('lib2to3.patcomp',
   'C:\\Users\\Alex\\AppData\\Local\\Programs\\Python\\Python36-32\\lib\\lib2to3\\patcomp.py',
   'PYMODULE'),
  ('lib2to3.pgen2.parse',
   'C:\\Users\\Alex\\AppData\\Local\\Programs\\Python\\Python36-32\\lib\\lib2to3\\pgen2\\parse.py',
   'PYMODULE'),
  ('lib2to3.pgen2.literals',
   'C:\\Users\\Alex\\AppData\\Local\\Programs\\Python\\Python36-32\\lib\\lib2to3\\pgen2\\literals.py',
   'PYMODULE'),
  ('lib2to3.fixer_util',
   'C:\\Users\\Alex\\AppData\\Local\\Programs\\Python\\Python36-32\\lib\\lib2to3\\fixer_util.py',
   'PYMODULE'),
  ('lib2to3.pgen2.token',
   'C:\\Users\\Alex\\AppData\\Local\\Programs\\Python\\Python36-32\\lib\\lib2to3\\pgen2\\token.py',
   'PYMODULE'),
  ('lib2to3.pgen2.tokenize',
   'C:\\Users\\Alex\\AppData\\Local\\Programs\\Python\\Python36-32\\lib\\lib2to3\\pgen2\\tokenize.py',
   'PYMODULE'),
  ('lib2to3.pgen2.driver',
   'C:\\Users\\Alex\\AppData\\Local\\Programs\\Python\\Python36-32\\lib\\lib2to3\\pgen2\\driver.py',
   'PYMODULE'),
  ('lib2to3.pgen2.pgen',
   'C:\\Users\\Alex\\AppData\\Local\\Programs\\Python\\Python36-32\\lib\\lib2to3\\pgen2\\pgen.py',
   'PYMODULE'),
  ('lib2to3.pgen2',
   'C:\\Users\\Alex\\AppData\\Local\\Programs\\Python\\Python36-32\\lib\\lib2to3\\pgen2\\__init__.py',
   'PYMODULE'),
  ('distutils.log',
   'C:\\Users\\Alex\\AppData\\Local\\Programs\\Python\\Python36-32\\lib\\distutils\\log.py',
   'PYMODULE'),
  ('distutils.text_file',
   'C:\\Users\\Alex\\AppData\\Local\\Programs\\Python\\Python36-32\\lib\\distutils\\text_file.py',
   'PYMODULE'),
  ('_osx_support',
   'C:\\Users\\Alex\\AppData\\Local\\Programs\\Python\\Python36-32\\lib\\_osx_support.py',
   'PYMODULE'),
  ('distutils.errors',
   'C:\\Users\\Alex\\AppData\\Local\\Programs\\Python\\Python36-32\\lib\\distutils\\errors.py',
   'PYMODULE'),
  ('win32com.server',
   'C:\\Users\\Alex\\PycharmProjects\\untitled\\venv\\lib\\site-packages\\win32com\\server\\__init__.py',
   'PYMODULE'),
  ('win32com.universal',
   'C:\\Users\\Alex\\PycharmProjects\\untitled\\venv\\lib\\site-packages\\win32com\\universal.py',
   'PYMODULE'),
  ('win32com.client.util',
   'C:\\Users\\Alex\\PycharmProjects\\untitled\\venv\\lib\\site-packages\\win32com\\client\\util.py',
   'PYMODULE'),
  ('imp',
   'C:\\Users\\Alex\\AppData\\Local\\Programs\\Python\\Python36-32\\lib\\imp.py',
   'PYMODULE'),
  ('pythoncom',
   'C:\\Users\\Alex\\PycharmProjects\\untitled\\venv\\lib\\site-packages\\pythoncom.py',
   'PYMODULE'),
  ('pkg_resources',
   'C:\\Users\\Alex\\PycharmProjects\\untitled\\venv\\lib\\site-packages\\setuptools-28.8.0-py3.6.egg\\pkg_resources\\__init__.py',
   'PYMODULE'),
  ('pkg_resources._vendor.packaging.version',
   'C:\\Users\\Alex\\PycharmProjects\\untitled\\venv\\lib\\site-packages\\setuptools-28.8.0-py3.6.egg\\pkg_resources\\_vendor\\packaging\\version.py',
   'PYMODULE'),
  ('pkg_resources._vendor.packaging',
   'C:\\Users\\Alex\\PycharmProjects\\untitled\\venv\\lib\\site-packages\\setuptools-28.8.0-py3.6.egg\\pkg_resources\\_vendor\\packaging\\__init__.py',
   'PYMODULE'),
  ('pkg_resources._vendor.pyparsing',
   'C:\\Users\\Alex\\PycharmProjects\\untitled\\venv\\lib\\site-packages\\setuptools-28.8.0-py3.6.egg\\pkg_resources\\_vendor\\pyparsing.py',
   'PYMODULE'),
  ('uuid',
   'C:\\Users\\Alex\\AppData\\Local\\Programs\\Python\\Python36-32\\lib\\uuid.py',
   'PYMODULE'),
  ('ctypes.util',
   'C:\\Users\\Alex\\AppData\\Local\\Programs\\Python\\Python36-32\\lib\\ctypes\\util.py',
   'PYMODULE'),
  ('ctypes.macholib.dyld',
   'C:\\Users\\Alex\\AppData\\Local\\Programs\\Python\\Python36-32\\lib\\ctypes\\macholib\\dyld.py',
   'PYMODULE'),
  ('ctypes.macholib',
   'C:\\Users\\Alex\\AppData\\Local\\Programs\\Python\\Python36-32\\lib\\ctypes\\macholib\\__init__.py',
   'PYMODULE'),
  ('ctypes.macholib.dylib',
   'C:\\Users\\Alex\\AppData\\Local\\Programs\\Python\\Python36-32\\lib\\ctypes\\macholib\\dylib.py',
   'PYMODULE'),
  ('ctypes.macholib.framework',
   'C:\\Users\\Alex\\AppData\\Local\\Programs\\Python\\Python36-32\\lib\\ctypes\\macholib\\framework.py',
   'PYMODULE'),
  ('netbios',
   'C:\\Users\\Alex\\PycharmProjects\\untitled\\venv\\lib\\site-packages\\win32\\lib\\netbios.py',
   'PYMODULE'),
  ('pkg_resources._vendor.packaging.__about__',
   'C:\\Users\\Alex\\PycharmProjects\\untitled\\venv\\lib\\site-packages\\setuptools-28.8.0-py3.6.egg\\pkg_resources\\_vendor\\packaging\\__about__.py',
   'PYMODULE'),
  ('pkg_resources._vendor.appdirs',
   'C:\\Users\\Alex\\PycharmProjects\\untitled\\venv\\lib\\site-packages\\setuptools-28.8.0-py3.6.egg\\pkg_resources\\_vendor\\appdirs.py',
   'PYMODULE'),
  ('win32com.shell.shellcon',
   'C:\\Users\\Alex\\PycharmProjects\\untitled\\venv\\lib\\site-packages\\win32comext\\shell\\shellcon.py',
   'PYMODULE'),
  ('win32com.shell',
   'C:\\Users\\Alex\\PycharmProjects\\untitled\\venv\\lib\\site-packages\\win32comext\\shell\\__init__.py',
   'PYMODULE'),
  ('pkg_resources._vendor',
   'C:\\Users\\Alex\\PycharmProjects\\untitled\\venv\\lib\\site-packages\\setuptools-28.8.0-py3.6.egg\\pkg_resources\\_vendor\\__init__.py',
   'PYMODULE'),
  ('pkg_resources._vendor.packaging.requirements',
   'C:\\Users\\Alex\\PycharmProjects\\untitled\\venv\\lib\\site-packages\\setuptools-28.8.0-py3.6.egg\\pkg_resources\\_vendor\\packaging\\requirements.py',
   'PYMODULE'),
  ('pkg_resources._vendor.packaging._structures',
   'C:\\Users\\Alex\\PycharmProjects\\untitled\\venv\\lib\\site-packages\\setuptools-28.8.0-py3.6.egg\\pkg_resources\\_vendor\\packaging\\_structures.py',
   'PYMODULE'),
  ('pkg_resources._vendor.packaging.markers',
   'C:\\Users\\Alex\\PycharmProjects\\untitled\\venv\\lib\\site-packages\\setuptools-28.8.0-py3.6.egg\\pkg_resources\\_vendor\\packaging\\markers.py',
   'PYMODULE'),
  ('pkg_resources._vendor.packaging.utils',
   'C:\\Users\\Alex\\PycharmProjects\\untitled\\venv\\lib\\site-packages\\setuptools-28.8.0-py3.6.egg\\pkg_resources\\_vendor\\packaging\\utils.py',
   'PYMODULE'),
  ('pkg_resources._vendor.packaging.specifiers',
   'C:\\Users\\Alex\\PycharmProjects\\untitled\\venv\\lib\\site-packages\\setuptools-28.8.0-py3.6.egg\\pkg_resources\\_vendor\\packaging\\specifiers.py',
   'PYMODULE'),
  ('pkg_resources._vendor.six',
   'C:\\Users\\Alex\\PycharmProjects\\untitled\\venv\\lib\\site-packages\\setuptools-28.8.0-py3.6.egg\\pkg_resources\\_vendor\\six.py',
   'PYMODULE'),
  ('pkg_resources._vendor.packaging._compat',
   'C:\\Users\\Alex\\PycharmProjects\\untitled\\venv\\lib\\site-packages\\setuptools-28.8.0-py3.6.egg\\pkg_resources\\_vendor\\packaging\\_compat.py',
   'PYMODULE'),
  ('sysconfig',
   'C:\\Users\\Alex\\AppData\\Local\\Programs\\Python\\Python36-32\\lib\\sysconfig.py',
   'PYMODULE'),
  ('pkg_resources.extern',
   'C:\\Users\\Alex\\PycharmProjects\\untitled\\venv\\lib\\site-packages\\setuptools-28.8.0-py3.6.egg\\pkg_resources\\extern\\__init__.py',
   'PYMODULE'),
  ('ntpath',
   'C:\\Users\\Alex\\AppData\\Local\\Programs\\Python\\Python36-32\\lib\\ntpath.py',
   'PYMODULE'),
  ('_strptime',
   'C:\\Users\\Alex\\AppData\\Local\\Programs\\Python\\Python36-32\\lib\\_strptime.py',
   'PYMODULE'),
  ('datetime',
   'C:\\Users\\Alex\\AppData\\Local\\Programs\\Python\\Python36-32\\lib\\datetime.py',
   'PYMODULE'),
  ('stringprep',
   'C:\\Users\\Alex\\AppData\\Local\\Programs\\Python\\Python36-32\\lib\\stringprep.py',
   'PYMODULE'),
  ('enum',
   'C:\\Users\\Alex\\AppData\\Local\\Programs\\Python\\Python36-32\\lib\\enum.py',
   'PYMODULE'),
  ('tkinter.constants',
   'C:\\Users\\Alex\\AppData\\Local\\Programs\\Python\\Python36-32\\lib\\tkinter\\constants.py',
   'PYMODULE'),
  ('stat',
   'C:\\Users\\Alex\\AppData\\Local\\Programs\\Python\\Python36-32\\lib\\stat.py',
   'PYMODULE'),
  ('genericpath',
   'C:\\Users\\Alex\\AppData\\Local\\Programs\\Python\\Python36-32\\lib\\genericpath.py',
   'PYMODULE'),
  ('posixpath',
   'C:\\Users\\Alex\\AppData\\Local\\Programs\\Python\\Python36-32\\lib\\posixpath.py',
   'PYMODULE'),
  ('fnmatch',
   'C:\\Users\\Alex\\AppData\\Local\\Programs\\Python\\Python36-32\\lib\\fnmatch.py',
   'PYMODULE'),
  ('struct',
   'C:\\Users\\Alex\\AppData\\Local\\Programs\\Python\\Python36-32\\lib\\struct.py',
   'PYMODULE'),
  ('_compat_pickle',
   'C:\\Users\\Alex\\AppData\\Local\\Programs\\Python\\Python36-32\\lib\\_compat_pickle.py',
   'PYMODULE'),
  ('__future__',
   'C:\\Users\\Alex\\AppData\\Local\\Programs\\Python\\Python36-32\\lib\\__future__.py',
   'PYMODULE'),
  ('difflib',
   'C:\\Users\\Alex\\AppData\\Local\\Programs\\Python\\Python36-32\\lib\\difflib.py',
   'PYMODULE'),
  ('ast',
   'C:\\Users\\Alex\\AppData\\Local\\Programs\\Python\\Python36-32\\lib\\ast.py',
   'PYMODULE'),
  ('inspect',
   'C:\\Users\\Alex\\AppData\\Local\\Programs\\Python\\Python36-32\\lib\\inspect.py',
   'PYMODULE'),
  ('cmd',
   'C:\\Users\\Alex\\AppData\\Local\\Programs\\Python\\Python36-32\\lib\\cmd.py',
   'PYMODULE'),
  ('bdb',
   'C:\\Users\\Alex\\AppData\\Local\\Programs\\Python\\Python36-32\\lib\\bdb.py',
   'PYMODULE'),
  ('opcode',
   'C:\\Users\\Alex\\AppData\\Local\\Programs\\Python\\Python36-32\\lib\\opcode.py',
   'PYMODULE'),
  ('dis',
   'C:\\Users\\Alex\\AppData\\Local\\Programs\\Python\\Python36-32\\lib\\dis.py',
   'PYMODULE'),
  ('codeop',
   'C:\\Users\\Alex\\AppData\\Local\\Programs\\Python\\Python36-32\\lib\\codeop.py',
   'PYMODULE'),
  ('code',
   'C:\\Users\\Alex\\AppData\\Local\\Programs\\Python\\Python36-32\\lib\\code.py',
   'PYMODULE'),
  ('glob',
   'C:\\Users\\Alex\\AppData\\Local\\Programs\\Python\\Python36-32\\lib\\glob.py',
   'PYMODULE'),
  ('shlex',
   'C:\\Users\\Alex\\AppData\\Local\\Programs\\Python\\Python36-32\\lib\\shlex.py',
   'PYMODULE'),
  ('importlib._bootstrap',
   'C:\\Users\\Alex\\AppData\\Local\\Programs\\Python\\Python36-32\\lib\\importlib\\_bootstrap.py',
   'PYMODULE'),
  ('importlib._bootstrap_external',
   'C:\\Users\\Alex\\AppData\\Local\\Programs\\Python\\Python36-32\\lib\\importlib\\_bootstrap_external.py',
   'PYMODULE'),
  ('importlib.machinery',
   'C:\\Users\\Alex\\AppData\\Local\\Programs\\Python\\Python36-32\\lib\\importlib\\machinery.py',
   'PYMODULE'),
  ('importlib.util',
   'C:\\Users\\Alex\\AppData\\Local\\Programs\\Python\\Python36-32\\lib\\importlib\\util.py',
   'PYMODULE'),
  ('importlib.abc',
   'C:\\Users\\Alex\\AppData\\Local\\Programs\\Python\\Python36-32\\lib\\importlib\\abc.py',
   'PYMODULE'),
  ('importlib',
   'C:\\Users\\Alex\\AppData\\Local\\Programs\\Python\\Python36-32\\lib\\importlib\\__init__.py',
   'PYMODULE'),
  ('pkgutil',
   'C:\\Users\\Alex\\AppData\\Local\\Programs\\Python\\Python36-32\\lib\\pkgutil.py',
   'PYMODULE'),
  ('xml',
   'C:\\Users\\Alex\\AppData\\Local\\Programs\\Python\\Python36-32\\lib\\xml\\__init__.py',
   'PYMODULE'),
  ('xml.sax.expatreader',
   'C:\\Users\\Alex\\AppData\\Local\\Programs\\Python\\Python36-32\\lib\\xml\\sax\\expatreader.py',
   'PYMODULE'),
  ('xml.sax.saxutils',
   'C:\\Users\\Alex\\AppData\\Local\\Programs\\Python\\Python36-32\\lib\\xml\\sax\\saxutils.py',
   'PYMODULE'),
  ('urllib.request',
   'C:\\Users\\Alex\\AppData\\Local\\Programs\\Python\\Python36-32\\lib\\urllib\\request.py',
   'PYMODULE'),
  ('getpass',
   'C:\\Users\\Alex\\AppData\\Local\\Programs\\Python\\Python36-32\\lib\\getpass.py',
   'PYMODULE'),
  ('nturl2path',
   'C:\\Users\\Alex\\AppData\\Local\\Programs\\Python\\Python36-32\\lib\\nturl2path.py',
   'PYMODULE'),
  ('ftplib',
   'C:\\Users\\Alex\\AppData\\Local\\Programs\\Python\\Python36-32\\lib\\ftplib.py',
   'PYMODULE'),
  ('netrc',
   'C:\\Users\\Alex\\AppData\\Local\\Programs\\Python\\Python36-32\\lib\\netrc.py',
   'PYMODULE'),
  ('http.cookiejar',
   'C:\\Users\\Alex\\AppData\\Local\\Programs\\Python\\Python36-32\\lib\\http\\cookiejar.py',
   'PYMODULE'),
  ('urllib.response',
   'C:\\Users\\Alex\\AppData\\Local\\Programs\\Python\\Python36-32\\lib\\urllib\\response.py',
   'PYMODULE'),
  ('urllib.error',
   'C:\\Users\\Alex\\AppData\\Local\\Programs\\Python\\Python36-32\\lib\\urllib\\error.py',
   'PYMODULE'),
  ('xml.sax',
   'C:\\Users\\Alex\\AppData\\Local\\Programs\\Python\\Python36-32\\lib\\xml\\sax\\__init__.py',
   'PYMODULE'),
  ('xml.sax.handler',
   'C:\\Users\\Alex\\AppData\\Local\\Programs\\Python\\Python36-32\\lib\\xml\\sax\\handler.py',
   'PYMODULE'),
  ('xml.sax._exceptions',
   'C:\\Users\\Alex\\AppData\\Local\\Programs\\Python\\Python36-32\\lib\\xml\\sax\\_exceptions.py',
   'PYMODULE'),
  ('xml.sax.xmlreader',
   'C:\\Users\\Alex\\AppData\\Local\\Programs\\Python\\Python36-32\\lib\\xml\\sax\\xmlreader.py',
   'PYMODULE'),
  ('xml.parsers',
   'C:\\Users\\Alex\\AppData\\Local\\Programs\\Python\\Python36-32\\lib\\xml\\parsers\\__init__.py',
   'PYMODULE'),
  ('xml.parsers.expat',
   'C:\\Users\\Alex\\AppData\\Local\\Programs\\Python\\Python36-32\\lib\\xml\\parsers\\expat.py',
   'PYMODULE'),
  ('plistlib',
   'C:\\Users\\Alex\\AppData\\Local\\Programs\\Python\\Python36-32\\lib\\plistlib.py',
   'PYMODULE'),
  ('platform',
   'C:\\Users\\Alex\\AppData\\Local\\Programs\\Python\\Python36-32\\lib\\platform.py',
   'PYMODULE'),
  ('token',
   'C:\\Users\\Alex\\AppData\\Local\\Programs\\Python\\Python36-32\\lib\\token.py',
   'PYMODULE'),
  ('tokenize',
   'C:\\Users\\Alex\\AppData\\Local\\Programs\\Python\\Python36-32\\lib\\tokenize.py',
   'PYMODULE'),
  ('urllib.parse',
   'C:\\Users\\Alex\\AppData\\Local\\Programs\\Python\\Python36-32\\lib\\urllib\\parse.py',
   'PYMODULE'),
  ('tempfile',
   'C:\\Users\\Alex\\AppData\\Local\\Programs\\Python\\Python36-32\\lib\\tempfile.py',
   'PYMODULE'),
  ('tty',
   'C:\\Users\\Alex\\AppData\\Local\\Programs\\Python\\Python36-32\\lib\\tty.py',
   'PYMODULE'),
  ('pydoc_data',
   'C:\\Users\\Alex\\AppData\\Local\\Programs\\Python\\Python36-32\\lib\\pydoc_data\\__init__.py',
   'PYMODULE'),
  ('pydoc_data.topics',
   'C:\\Users\\Alex\\AppData\\Local\\Programs\\Python\\Python36-32\\lib\\pydoc_data\\topics.py',
   'PYMODULE'),
  ('html.entities',
   'C:\\Users\\Alex\\AppData\\Local\\Programs\\Python\\Python36-32\\lib\\html\\entities.py',
   'PYMODULE'),
  ('html',
   'C:\\Users\\Alex\\AppData\\Local\\Programs\\Python\\Python36-32\\lib\\html\\__init__.py',
   'PYMODULE'),
  ('ipaddress',
   'C:\\Users\\Alex\\AppData\\Local\\Programs\\Python\\Python36-32\\lib\\ipaddress.py',
   'PYMODULE'),
  ('ssl',
   'C:\\Users\\Alex\\AppData\\Local\\Programs\\Python\\Python36-32\\lib\\ssl.py',
   'PYMODULE'),
  ('http.client',
   'C:\\Users\\Alex\\AppData\\Local\\Programs\\Python\\Python36-32\\lib\\http\\client.py',
   'PYMODULE'),
  ('mimetypes',
   'C:\\Users\\Alex\\AppData\\Local\\Programs\\Python\\Python36-32\\lib\\mimetypes.py',
   'PYMODULE'),
  ('socketserver',
   'C:\\Users\\Alex\\AppData\\Local\\Programs\\Python\\Python36-32\\lib\\socketserver.py',
   'PYMODULE'),
  ('http',
   'C:\\Users\\Alex\\AppData\\Local\\Programs\\Python\\Python36-32\\lib\\http\\__init__.py',
   'PYMODULE'),
  ('http.server',
   'C:\\Users\\Alex\\AppData\\Local\\Programs\\Python\\Python36-32\\lib\\http\\server.py',
   'PYMODULE'),
  ('optparse',
   'C:\\Users\\Alex\\AppData\\Local\\Programs\\Python\\Python36-32\\lib\\optparse.py',
   'PYMODULE'),
  ('uu',
   'C:\\Users\\Alex\\AppData\\Local\\Programs\\Python\\Python36-32\\lib\\uu.py',
   'PYMODULE'),
  ('quopri',
   'C:\\Users\\Alex\\AppData\\Local\\Programs\\Python\\Python36-32\\lib\\quopri.py',
   'PYMODULE'),
  ('email.feedparser',
   'C:\\Users\\Alex\\AppData\\Local\\Programs\\Python\\Python36-32\\lib\\email\\feedparser.py',
   'PYMODULE'),
  ('email.parser',
   'C:\\Users\\Alex\\AppData\\Local\\Programs\\Python\\Python36-32\\lib\\email\\parser.py',
   'PYMODULE'),
  ('email',
   'C:\\Users\\Alex\\AppData\\Local\\Programs\\Python\\Python36-32\\lib\\email\\__init__.py',
   'PYMODULE'),
  ('calendar',
   'C:\\Users\\Alex\\AppData\\Local\\Programs\\Python\\Python36-32\\lib\\calendar.py',
   'PYMODULE'),
  ('email._parseaddr',
   'C:\\Users\\Alex\\AppData\\Local\\Programs\\Python\\Python36-32\\lib\\email\\_parseaddr.py',
   'PYMODULE'),
  ('email.utils',
   'C:\\Users\\Alex\\AppData\\Local\\Programs\\Python\\Python36-32\\lib\\email\\utils.py',
   'PYMODULE'),
  ('email.errors',
   'C:\\Users\\Alex\\AppData\\Local\\Programs\\Python\\Python36-32\\lib\\email\\errors.py',
   'PYMODULE'),
  ('email.header',
   'C:\\Users\\Alex\\AppData\\Local\\Programs\\Python\\Python36-32\\lib\\email\\header.py',
   'PYMODULE'),
  ('email._policybase',
   'C:\\Users\\Alex\\AppData\\Local\\Programs\\Python\\Python36-32\\lib\\email\\_policybase.py',
   'PYMODULE'),
  ('email.base64mime',
   'C:\\Users\\Alex\\AppData\\Local\\Programs\\Python\\Python36-32\\lib\\email\\base64mime.py',
   'PYMODULE'),
  ('email.encoders',
   'C:\\Users\\Alex\\AppData\\Local\\Programs\\Python\\Python36-32\\lib\\email\\encoders.py',
   'PYMODULE'),
  ('email.charset',
   'C:\\Users\\Alex\\AppData\\Local\\Programs\\Python\\Python36-32\\lib\\email\\charset.py',
   'PYMODULE'),
  ('base64',
   'C:\\Users\\Alex\\AppData\\Local\\Programs\\Python\\Python36-32\\lib\\base64.py',
   'PYMODULE'),
  ('email._encoded_words',
   'C:\\Users\\Alex\\AppData\\Local\\Programs\\Python\\Python36-32\\lib\\email\\_encoded_words.py',
   'PYMODULE'),
  ('hashlib',
   'C:\\Users\\Alex\\AppData\\Local\\Programs\\Python\\Python36-32\\lib\\hashlib.py',
   'PYMODULE'),
  ('bisect',
   'C:\\Users\\Alex\\AppData\\Local\\Programs\\Python\\Python36-32\\lib\\bisect.py',
   'PYMODULE'),
  ('random',
   'C:\\Users\\Alex\\AppData\\Local\\Programs\\Python\\Python36-32\\lib\\random.py',
   'PYMODULE'),
  ('email.generator',
   'C:\\Users\\Alex\\AppData\\Local\\Programs\\Python\\Python36-32\\lib\\email\\generator.py',
   'PYMODULE'),
  ('email.iterators',
   'C:\\Users\\Alex\\AppData\\Local\\Programs\\Python\\Python36-32\\lib\\email\\iterators.py',
   'PYMODULE'),
  ('urllib',
   'C:\\Users\\Alex\\AppData\\Local\\Programs\\Python\\Python36-32\\lib\\urllib\\__init__.py',
   'PYMODULE'),
  ('email._header_value_parser',
   'C:\\Users\\Alex\\AppData\\Local\\Programs\\Python\\Python36-32\\lib\\email\\_header_value_parser.py',
   'PYMODULE'),
  ('email.headerregistry',
   'C:\\Users\\Alex\\AppData\\Local\\Programs\\Python\\Python36-32\\lib\\email\\headerregistry.py',
   'PYMODULE'),
  ('email.quoprimime',
   'C:\\Users\\Alex\\AppData\\Local\\Programs\\Python\\Python36-32\\lib\\email\\quoprimime.py',
   'PYMODULE'),
  ('email.contentmanager',
   'C:\\Users\\Alex\\AppData\\Local\\Programs\\Python\\Python36-32\\lib\\email\\contentmanager.py',
   'PYMODULE'),
  ('email.policy',
   'C:\\Users\\Alex\\AppData\\Local\\Programs\\Python\\Python36-32\\lib\\email\\policy.py',
   'PYMODULE'),
  ('email.message',
   'C:\\Users\\Alex\\AppData\\Local\\Programs\\Python\\Python36-32\\lib\\email\\message.py',
   'PYMODULE'),
  ('bz2',
   'C:\\Users\\Alex\\AppData\\Local\\Programs\\Python\\Python36-32\\lib\\bz2.py',
   'PYMODULE'),
  ('lzma',
   'C:\\Users\\Alex\\AppData\\Local\\Programs\\Python\\Python36-32\\lib\\lzma.py',
   'PYMODULE'),
  ('_compression',
   'C:\\Users\\Alex\\AppData\\Local\\Programs\\Python\\Python36-32\\lib\\_compression.py',
   'PYMODULE'),
  ('gzip',
   'C:\\Users\\Alex\\AppData\\Local\\Programs\\Python\\Python36-32\\lib\\gzip.py',
   'PYMODULE'),
  ('tarfile',
   'C:\\Users\\Alex\\AppData\\Local\\Programs\\Python\\Python36-32\\lib\\tarfile.py',
   'PYMODULE'),
  ('py_compile',
   'C:\\Users\\Alex\\AppData\\Local\\Programs\\Python\\Python36-32\\lib\\py_compile.py',
   'PYMODULE'),
  ('zipfile',
   'C:\\Users\\Alex\\AppData\\Local\\Programs\\Python\\Python36-32\\lib\\zipfile.py',
   'PYMODULE'),
  ('shutil',
   'C:\\Users\\Alex\\AppData\\Local\\Programs\\Python\\Python36-32\\lib\\shutil.py',
   'PYMODULE'),
  ('socket',
   'C:\\Users\\Alex\\AppData\\Local\\Programs\\Python\\Python36-32\\lib\\socket.py',
   'PYMODULE'),
  ('webbrowser',
   'C:\\Users\\Alex\\AppData\\Local\\Programs\\Python\\Python36-32\\lib\\webbrowser.py',
   'PYMODULE'),
  ('pydoc',
   'C:\\Users\\Alex\\AppData\\Local\\Programs\\Python\\Python36-32\\lib\\pydoc.py',
   'PYMODULE'),
  ('getopt',
   'C:\\Users\\Alex\\AppData\\Local\\Programs\\Python\\Python36-32\\lib\\getopt.py',
   'PYMODULE'),
  ('pdb',
   'C:\\Users\\Alex\\AppData\\Local\\Programs\\Python\\Python36-32\\lib\\pdb.py',
   'PYMODULE'),
  ('unittest.util',
   'C:\\Users\\Alex\\AppData\\Local\\Programs\\Python\\Python36-32\\lib\\unittest\\util.py',
   'PYMODULE'),
  ('unittest.result',
   'C:\\Users\\Alex\\AppData\\Local\\Programs\\Python\\Python36-32\\lib\\unittest\\result.py',
   'PYMODULE'),
  ('string',
   'C:\\Users\\Alex\\AppData\\Local\\Programs\\Python\\Python36-32\\lib\\string.py',
   'PYMODULE'),
  ('logging',
   'C:\\Users\\Alex\\AppData\\Local\\Programs\\Python\\Python36-32\\lib\\logging\\__init__.py',
   'PYMODULE'),
  ('unittest.case',
   'C:\\Users\\Alex\\AppData\\Local\\Programs\\Python\\Python36-32\\lib\\unittest\\case.py',
   'PYMODULE'),
  ('unittest.suite',
   'C:\\Users\\Alex\\AppData\\Local\\Programs\\Python\\Python36-32\\lib\\unittest\\suite.py',
   'PYMODULE'),
  ('unittest.loader',
   'C:\\Users\\Alex\\AppData\\Local\\Programs\\Python\\Python36-32\\lib\\unittest\\loader.py',
   'PYMODULE'),
  ('unittest.runner',
   'C:\\Users\\Alex\\AppData\\Local\\Programs\\Python\\Python36-32\\lib\\unittest\\runner.py',
   'PYMODULE'),
  ('unittest.main',
   'C:\\Users\\Alex\\AppData\\Local\\Programs\\Python\\Python36-32\\lib\\unittest\\main.py',
   'PYMODULE'),
  ('unittest.signals',
   'C:\\Users\\Alex\\AppData\\Local\\Programs\\Python\\Python36-32\\lib\\unittest\\signals.py',
   'PYMODULE'),
  ('unittest',
   'C:\\Users\\Alex\\AppData\\Local\\Programs\\Python\\Python36-32\\lib\\unittest\\__init__.py',
   'PYMODULE'),
  ('doctest',
   'C:\\Users\\Alex\\AppData\\Local\\Programs\\Python\\Python36-32\\lib\\doctest.py',
   'PYMODULE'),
  ('copy',
   'C:\\Users\\Alex\\AppData\\Local\\Programs\\Python\\Python36-32\\lib\\copy.py',
   'PYMODULE'),
  ('textwrap',
   'C:\\Users\\Alex\\AppData\\Local\\Programs\\Python\\Python36-32\\lib\\textwrap.py',
   'PYMODULE'),
  ('gettext',
   'C:\\Users\\Alex\\AppData\\Local\\Programs\\Python\\Python36-32\\lib\\gettext.py',
   'PYMODULE'),
  ('argparse',
   'C:\\Users\\Alex\\AppData\\Local\\Programs\\Python\\Python36-32\\lib\\argparse.py',
   'PYMODULE'),
  ('pprint',
   'C:\\Users\\Alex\\AppData\\Local\\Programs\\Python\\Python36-32\\lib\\pprint.py',
   'PYMODULE'),
  ('pickle',
   'C:\\Users\\Alex\\AppData\\Local\\Programs\\Python\\Python36-32\\lib\\pickle.py',
   'PYMODULE'),
  ('tracemalloc',
   'C:\\Users\\Alex\\AppData\\Local\\Programs\\Python\\Python36-32\\lib\\tracemalloc.py',
   'PYMODULE'),
  ('warnings',
   'C:\\Users\\Alex\\AppData\\Local\\Programs\\Python\\Python36-32\\lib\\warnings.py',
   'PYMODULE'),
  ('signal',
   'C:\\Users\\Alex\\AppData\\Local\\Programs\\Python\\Python36-32\\lib\\signal.py',
   'PYMODULE'),
  ('contextlib',
   'C:\\Users\\Alex\\AppData\\Local\\Programs\\Python\\Python36-32\\lib\\contextlib.py',
   'PYMODULE'),
  ('_threading_local',
   'C:\\Users\\Alex\\AppData\\Local\\Programs\\Python\\Python36-32\\lib\\_threading_local.py',
   'PYMODULE'),
  ('threading',
   'C:\\Users\\Alex\\AppData\\Local\\Programs\\Python\\Python36-32\\lib\\threading.py',
   'PYMODULE'),
  ('selectors',
   'C:\\Users\\Alex\\AppData\\Local\\Programs\\Python\\Python36-32\\lib\\selectors.py',
   'PYMODULE'),
  ('_dummy_thread',
   'C:\\Users\\Alex\\AppData\\Local\\Programs\\Python\\Python36-32\\lib\\_dummy_thread.py',
   'PYMODULE'),
  ('dummy_threading',
   'C:\\Users\\Alex\\AppData\\Local\\Programs\\Python\\Python36-32\\lib\\dummy_threading.py',
   'PYMODULE'),
  ('subprocess',
   'C:\\Users\\Alex\\AppData\\Local\\Programs\\Python\\Python36-32\\lib\\subprocess.py',
   'PYMODULE'),
  ('os',
   'C:\\Users\\Alex\\AppData\\Local\\Programs\\Python\\Python36-32\\lib\\os.py',
   'PYMODULE'),
  ('predictions',
   'C:\\Users\\Alex\\PycharmProjects\\untitled\\predictions.py',
   'PYMODULE'),
  ('numpy',
   'C:\\Users\\Alex\\AppData\\Local\\Programs\\Python\\Python36-32\\lib\\numpy\\__init__.py',
   'PYMODULE'),
  ('numpy.matrixlib',
   'C:\\Users\\Alex\\AppData\\Local\\Programs\\Python\\Python36-32\\lib\\numpy\\matrixlib\\__init__.py',
   'PYMODULE'),
  ('numpy.testing.nosetester',
   'C:\\Users\\Alex\\AppData\\Local\\Programs\\Python\\Python36-32\\lib\\numpy\\testing\\nosetester.py',
   'PYMODULE'),
  ('numpy.distutils.cpuinfo',
   'C:\\Users\\Alex\\AppData\\Local\\Programs\\Python\\Python36-32\\lib\\numpy\\distutils\\cpuinfo.py',
   'PYMODULE'),
  ('numpy.distutils.compat',
   'C:\\Users\\Alex\\AppData\\Local\\Programs\\Python\\Python36-32\\lib\\numpy\\distutils\\compat.py',
   'PYMODULE'),
  ('numpy.distutils',
   'C:\\Users\\Alex\\AppData\\Local\\Programs\\Python\\Python36-32\\lib\\numpy\\distutils\\__init__.py',
   'PYMODULE'),
  ('numpy.distutils.__config__',
   'C:\\Users\\Alex\\AppData\\Local\\Programs\\Python\\Python36-32\\lib\\numpy\\distutils\\__config__.py',
   'PYMODULE'),
  ('numpy.distutils.npy_pkg_config',
   'C:\\Users\\Alex\\AppData\\Local\\Programs\\Python\\Python36-32\\lib\\numpy\\distutils\\npy_pkg_config.py',
   'PYMODULE'),
  ('configparser',
   'C:\\Users\\Alex\\AppData\\Local\\Programs\\Python\\Python36-32\\lib\\configparser.py',
   'PYMODULE'),
  ('numpy.distutils.info',
   'C:\\Users\\Alex\\AppData\\Local\\Programs\\Python\\Python36-32\\lib\\numpy\\distutils\\info.py',
   'PYMODULE'),
  ('numpy.distutils.unixccompiler',
   'C:\\Users\\Alex\\AppData\\Local\\Programs\\Python\\Python36-32\\lib\\numpy\\distutils\\unixccompiler.py',
   'PYMODULE'),
  ('numpy.distutils.misc_util',
   'C:\\Users\\Alex\\AppData\\Local\\Programs\\Python\\Python36-32\\lib\\numpy\\distutils\\misc_util.py',
   'PYMODULE'),
  ('distutils.core',
   'C:\\Users\\Alex\\AppData\\Local\\Programs\\Python\\Python36-32\\lib\\distutils\\core.py',
   'PYMODULE'),
  ('distutils.extension',
   'C:\\Users\\Alex\\AppData\\Local\\Programs\\Python\\Python36-32\\lib\\distutils\\extension.py',
   'PYMODULE'),
  ('distutils.config',
   'C:\\Users\\Alex\\AppData\\Local\\Programs\\Python\\Python36-32\\lib\\distutils\\config.py',
   'PYMODULE'),
  ('cgi',
   'C:\\Users\\Alex\\AppData\\Local\\Programs\\Python\\Python36-32\\lib\\cgi.py',
   'PYMODULE'),
  ('distutils.cmd',
   'C:\\Users\\Alex\\AppData\\Local\\Programs\\Python\\Python36-32\\lib\\distutils\\cmd.py',
   'PYMODULE'),
  ('distutils.dist',
   'C:\\Users\\Alex\\AppData\\Local\\Programs\\Python\\Python36-32\\lib\\distutils\\dist.py',
   'PYMODULE'),
  ('distutils.versionpredicate',
   'C:\\Users\\Alex\\AppData\\Local\\Programs\\Python\\Python36-32\\lib\\distutils\\versionpredicate.py',
   'PYMODULE'),
  ('distutils.version',
   'C:\\Users\\Alex\\AppData\\Local\\Programs\\Python\\Python36-32\\lib\\distutils\\version.py',
   'PYMODULE'),
  ('distutils.command',
   'C:\\Users\\Alex\\AppData\\Local\\Programs\\Python\\Python36-32\\lib\\distutils\\command\\__init__.py',
   'PYMODULE'),
  ('numpy.distutils.system_info',
   'C:\\Users\\Alex\\AppData\\Local\\Programs\\Python\\Python36-32\\lib\\numpy\\distutils\\system_info.py',
   'PYMODULE'),
  ('numpy.f2py',
   'C:\\Users\\Alex\\AppData\\Local\\Programs\\Python\\Python36-32\\lib\\numpy\\f2py\\__init__.py',
   'PYMODULE'),
  ('numpy.f2py.diagnose',
   'C:\\Users\\Alex\\AppData\\Local\\Programs\\Python\\Python36-32\\lib\\numpy\\f2py\\diagnose.py',
   'PYMODULE'),
  ('numpy.distutils.fcompiler',
   'C:\\Users\\Alex\\AppData\\Local\\Programs\\Python\\Python36-32\\lib\\numpy\\distutils\\fcompiler\\__init__.py',
   'PYMODULE'),
  ('numpy.distutils.command.config_compiler',
   'C:\\Users\\Alex\\AppData\\Local\\Programs\\Python\\Python36-32\\lib\\numpy\\distutils\\command\\config_compiler.py',
   'PYMODULE'),
  ('numpy.distutils.command',
   'C:\\Users\\Alex\\AppData\\Local\\Programs\\Python\\Python36-32\\lib\\numpy\\distutils\\command\\__init__.py',
   'PYMODULE'),
  ('numpy.distutils.command.egg_info',
   'C:\\Users\\Alex\\AppData\\Local\\Programs\\Python\\Python36-32\\lib\\numpy\\distutils\\command\\egg_info.py',
   'PYMODULE'),
  ('setuptools.command.egg_info',
   'C:\\Users\\Alex\\PycharmProjects\\untitled\\venv\\lib\\site-packages\\setuptools-28.8.0-py3.6.egg\\setuptools\\command\\egg_info.py',
   'PYMODULE'),
  ('setuptools.glob',
   'C:\\Users\\Alex\\PycharmProjects\\untitled\\venv\\lib\\site-packages\\setuptools-28.8.0-py3.6.egg\\setuptools\\glob.py',
   'PYMODULE'),
  ('setuptools.unicode_utils',
   'C:\\Users\\Alex\\PycharmProjects\\untitled\\venv\\lib\\site-packages\\setuptools-28.8.0-py3.6.egg\\setuptools\\unicode_utils.py',
   'PYMODULE'),
  ('setuptools.command.bdist_egg',
   'C:\\Users\\Alex\\PycharmProjects\\untitled\\venv\\lib\\site-packages\\setuptools-28.8.0-py3.6.egg\\setuptools\\command\\bdist_egg.py',
   'PYMODULE'),
  ('setuptools.extension',
   'C:\\Users\\Alex\\PycharmProjects\\untitled\\venv\\lib\\site-packages\\setuptools-28.8.0-py3.6.egg\\setuptools\\extension.py',
   'PYMODULE'),
  ('setuptools.monkey',
   'C:\\Users\\Alex\\PycharmProjects\\untitled\\venv\\lib\\site-packages\\setuptools-28.8.0-py3.6.egg\\setuptools\\monkey.py',
   'PYMODULE'),
  ('setuptools.py26compat',
   'C:\\Users\\Alex\\PycharmProjects\\untitled\\venv\\lib\\site-packages\\setuptools-28.8.0-py3.6.egg\\setuptools\\py26compat.py',
   'PYMODULE'),
  ('setuptools.command',
   'C:\\Users\\Alex\\PycharmProjects\\untitled\\venv\\lib\\site-packages\\setuptools-28.8.0-py3.6.egg\\setuptools\\command\\__init__.py',
   'PYMODULE'),
  ('setuptools.command.install_scripts',
   'C:\\Users\\Alex\\PycharmProjects\\untitled\\venv\\lib\\site-packages\\setuptools-28.8.0-py3.6.egg\\setuptools\\command\\install_scripts.py',
   'PYMODULE'),
  ('setuptools.command.easy_install',
   'C:\\Users\\Alex\\PycharmProjects\\untitled\\venv\\lib\\site-packages\\setuptools-28.8.0-py3.6.egg\\setuptools\\command\\easy_install.py',
   'PYMODULE'),
  ('setuptools.dist',
   'C:\\Users\\Alex\\PycharmProjects\\untitled\\venv\\lib\\site-packages\\setuptools-28.8.0-py3.6.egg\\setuptools\\dist.py',
   'PYMODULE'),
  ('setuptools.windows_support',
   'C:\\Users\\Alex\\PycharmProjects\\untitled\\venv\\lib\\site-packages\\setuptools-28.8.0-py3.6.egg\\setuptools\\windows_support.py',
   'PYMODULE'),
  ('setuptools.depends',
   'C:\\Users\\Alex\\PycharmProjects\\untitled\\venv\\lib\\site-packages\\setuptools-28.8.0-py3.6.egg\\setuptools\\depends.py',
   'PYMODULE'),
  ('setuptools.package_index',
   'C:\\Users\\Alex\\PycharmProjects\\untitled\\venv\\lib\\site-packages\\setuptools-28.8.0-py3.6.egg\\setuptools\\package_index.py',
   'PYMODULE'),
  ('setuptools.py27compat',
   'C:\\Users\\Alex\\PycharmProjects\\untitled\\venv\\lib\\site-packages\\setuptools-28.8.0-py3.6.egg\\setuptools\\py27compat.py',
   'PYMODULE'),
  ('setuptools.ssl_support',
   'C:\\Users\\Alex\\PycharmProjects\\untitled\\venv\\lib\\site-packages\\setuptools-28.8.0-py3.6.egg\\setuptools\\ssl_support.py',
   'PYMODULE'),
  ('setuptools.archive_util',
   'C:\\Users\\Alex\\PycharmProjects\\untitled\\venv\\lib\\site-packages\\setuptools-28.8.0-py3.6.egg\\setuptools\\archive_util.py',
   'PYMODULE'),
  ('setuptools.py31compat',
   'C:\\Users\\Alex\\PycharmProjects\\untitled\\venv\\lib\\site-packages\\setuptools-28.8.0-py3.6.egg\\setuptools\\py31compat.py',
   'PYMODULE'),
  ('setuptools.sandbox',
   'C:\\Users\\Alex\\PycharmProjects\\untitled\\venv\\lib\\site-packages\\setuptools-28.8.0-py3.6.egg\\setuptools\\sandbox.py',
   'PYMODULE'),
  ('site',
   'C:\\Users\\Alex\\PycharmProjects\\untitled\\venv\\lib\\site-packages\\PyInstaller\\fake-modules\\site.py',
   'PYMODULE'),
  ('distutils.command.build_scripts',
   'C:\\Users\\Alex\\AppData\\Local\\Programs\\Python\\Python36-32\\lib\\distutils\\command\\build_scripts.py',
   'PYMODULE'),
  ('distutils.command.install',
   'C:\\Users\\Alex\\AppData\\Local\\Programs\\Python\\Python36-32\\lib\\distutils\\command\\install.py',
   'PYMODULE'),
  ('distutils.command.install_scripts',
   'C:\\Users\\Alex\\AppData\\Local\\Programs\\Python\\Python36-32\\lib\\distutils\\command\\install_scripts.py',
   'PYMODULE'),
  ('distutils.command.bdist',
   'C:\\Users\\Alex\\AppData\\Local\\Programs\\Python\\Python36-32\\lib\\distutils\\command\\bdist.py',
   'PYMODULE'),
  ('setuptools.command.setopt',
   'C:\\Users\\Alex\\PycharmProjects\\untitled\\venv\\lib\\site-packages\\setuptools-28.8.0-py3.6.egg\\setuptools\\command\\setopt.py',
   'PYMODULE'),
  ('setuptools.command.sdist',
   'C:\\Users\\Alex\\PycharmProjects\\untitled\\venv\\lib\\site-packages\\setuptools-28.8.0-py3.6.egg\\setuptools\\command\\sdist.py',
   'PYMODULE'),
  ('setuptools.command.py36compat',
   'C:\\Users\\Alex\\PycharmProjects\\untitled\\venv\\lib\\site-packages\\setuptools-28.8.0-py3.6.egg\\setuptools\\command\\py36compat.py',
   'PYMODULE'),
  ('distutils.command.sdist',
   'C:\\Users\\Alex\\AppData\\Local\\Programs\\Python\\Python36-32\\lib\\distutils\\command\\sdist.py',
   'PYMODULE'),
  ('setuptools',
   'C:\\Users\\Alex\\PycharmProjects\\untitled\\venv\\lib\\site-packages\\setuptools-28.8.0-py3.6.egg\\setuptools\\__init__.py',
   'PYMODULE'),
  ('setuptools.msvc',
   'C:\\Users\\Alex\\PycharmProjects\\untitled\\venv\\lib\\site-packages\\setuptools-28.8.0-py3.6.egg\\setuptools\\msvc.py',
   'PYMODULE'),
  ('distutils.msvc9compiler',
   'C:\\Users\\Alex\\AppData\\Local\\Programs\\Python\\Python36-32\\lib\\distutils\\msvc9compiler.py',
   'PYMODULE'),
  ('distutils.command.build_ext',
   'C:\\Users\\Alex\\AppData\\Local\\Programs\\Python\\Python36-32\\lib\\distutils\\command\\build_ext.py',
   'PYMODULE'),
  ('distutils._msvccompiler',
   'C:\\Users\\Alex\\AppData\\Local\\Programs\\Python\\Python36-32\\lib\\distutils\\_msvccompiler.py',
   'PYMODULE'),
  ('concurrent.futures',
   'C:\\Users\\Alex\\AppData\\Local\\Programs\\Python\\Python36-32\\lib\\concurrent\\futures\\__init__.py',
   'PYMODULE'),
  ('concurrent.futures.thread',
   'C:\\Users\\Alex\\AppData\\Local\\Programs\\Python\\Python36-32\\lib\\concurrent\\futures\\thread.py',
   'PYMODULE'),
  ('concurrent.futures.process',
   'C:\\Users\\Alex\\AppData\\Local\\Programs\\Python\\Python36-32\\lib\\concurrent\\futures\\process.py',
   'PYMODULE'),
  ('concurrent.futures._base',
   'C:\\Users\\Alex\\AppData\\Local\\Programs\\Python\\Python36-32\\lib\\concurrent\\futures\\_base.py',
   'PYMODULE'),
  ('concurrent',
   'C:\\Users\\Alex\\AppData\\Local\\Programs\\Python\\Python36-32\\lib\\concurrent\\__init__.py',
   'PYMODULE'),
  ('setuptools.version',
   'C:\\Users\\Alex\\PycharmProjects\\untitled\\venv\\lib\\site-packages\\setuptools-28.8.0-py3.6.egg\\setuptools\\version.py',
   'PYMODULE'),
  ('setuptools.extern',
   'C:\\Users\\Alex\\PycharmProjects\\untitled\\venv\\lib\\site-packages\\setuptools-28.8.0-py3.6.egg\\setuptools\\extern\\__init__.py',
   'PYMODULE'),
  ('numpy.distutils.command.develop',
   'C:\\Users\\Alex\\AppData\\Local\\Programs\\Python\\Python36-32\\lib\\numpy\\distutils\\command\\develop.py',
   'PYMODULE'),
  ('setuptools.command.develop',
   'C:\\Users\\Alex\\PycharmProjects\\untitled\\venv\\lib\\site-packages\\setuptools-28.8.0-py3.6.egg\\setuptools\\command\\develop.py',
   'PYMODULE'),
  ('numpy.distutils.command.install_clib',
   'C:\\Users\\Alex\\AppData\\Local\\Programs\\Python\\Python36-32\\lib\\numpy\\distutils\\command\\install_clib.py',
   'PYMODULE'),
  ('numpy.distutils.command.bdist_rpm',
   'C:\\Users\\Alex\\AppData\\Local\\Programs\\Python\\Python36-32\\lib\\numpy\\distutils\\command\\bdist_rpm.py',
   'PYMODULE'),
  ('distutils.command.bdist_rpm',
   'C:\\Users\\Alex\\AppData\\Local\\Programs\\Python\\Python36-32\\lib\\distutils\\command\\bdist_rpm.py',
   'PYMODULE'),
  ('setuptools.command.bdist_rpm',
   'C:\\Users\\Alex\\PycharmProjects\\untitled\\venv\\lib\\site-packages\\setuptools-28.8.0-py3.6.egg\\setuptools\\command\\bdist_rpm.py',
   'PYMODULE'),
  ('numpy.distutils.command.install',
   'C:\\Users\\Alex\\AppData\\Local\\Programs\\Python\\Python36-32\\lib\\numpy\\distutils\\command\\install.py',
   'PYMODULE'),
  ('setuptools.command.install',
   'C:\\Users\\Alex\\PycharmProjects\\untitled\\venv\\lib\\site-packages\\setuptools-28.8.0-py3.6.egg\\setuptools\\command\\install.py',
   'PYMODULE'),
  ('numpy.distutils.command.install_headers',
   'C:\\Users\\Alex\\AppData\\Local\\Programs\\Python\\Python36-32\\lib\\numpy\\distutils\\command\\install_headers.py',
   'PYMODULE'),
  ('distutils.command.install_headers',
   'C:\\Users\\Alex\\AppData\\Local\\Programs\\Python\\Python36-32\\lib\\distutils\\command\\install_headers.py',
   'PYMODULE'),
  ('numpy.distutils.command.install_data',
   'C:\\Users\\Alex\\AppData\\Local\\Programs\\Python\\Python36-32\\lib\\numpy\\distutils\\command\\install_data.py',
   'PYMODULE'),
  ('distutils.command.install_data',
   'C:\\Users\\Alex\\AppData\\Local\\Programs\\Python\\Python36-32\\lib\\distutils\\command\\install_data.py',
   'PYMODULE'),
  ('numpy.distutils.command.sdist',
   'C:\\Users\\Alex\\AppData\\Local\\Programs\\Python\\Python36-32\\lib\\numpy\\distutils\\command\\sdist.py',
   'PYMODULE'),
  ('numpy.distutils.command.build_scripts',
   'C:\\Users\\Alex\\AppData\\Local\\Programs\\Python\\Python36-32\\lib\\numpy\\distutils\\command\\build_scripts.py',
   'PYMODULE'),
  ('numpy.distutils.command.build_clib',
   'C:\\Users\\Alex\\AppData\\Local\\Programs\\Python\\Python36-32\\lib\\numpy\\distutils\\command\\build_clib.py',
   'PYMODULE'),
  ('distutils.command.build_clib',
   'C:\\Users\\Alex\\AppData\\Local\\Programs\\Python\\Python36-32\\lib\\distutils\\command\\build_clib.py',
   'PYMODULE'),
  ('numpy.distutils.command.build_ext',
   'C:\\Users\\Alex\\AppData\\Local\\Programs\\Python\\Python36-32\\lib\\numpy\\distutils\\command\\build_ext.py',
   'PYMODULE'),
  ('numpy.distutils.command.build_py',
   'C:\\Users\\Alex\\AppData\\Local\\Programs\\Python\\Python36-32\\lib\\numpy\\distutils\\command\\build_py.py',
   'PYMODULE'),
  ('distutils.command.build_py',
   'C:\\Users\\Alex\\AppData\\Local\\Programs\\Python\\Python36-32\\lib\\distutils\\command\\build_py.py',
   'PYMODULE'),
  ('numpy.distutils.command.build',
   'C:\\Users\\Alex\\AppData\\Local\\Programs\\Python\\Python36-32\\lib\\numpy\\distutils\\command\\build.py',
   'PYMODULE'),
  ('distutils.command.build',
   'C:\\Users\\Alex\\AppData\\Local\\Programs\\Python\\Python36-32\\lib\\distutils\\command\\build.py',
   'PYMODULE'),
  ('numpy.distutils.environment',
   'C:\\Users\\Alex\\AppData\\Local\\Programs\\Python\\Python36-32\\lib\\numpy\\distutils\\environment.py',
   'PYMODULE'),
  ('numpy.f2py.f2py_testing',
   'C:\\Users\\Alex\\AppData\\Local\\Programs\\Python\\Python36-32\\lib\\numpy\\f2py\\f2py_testing.py',
   'PYMODULE'),
  ('numpy.f2py.f2py2e',
   'C:\\Users\\Alex\\AppData\\Local\\Programs\\Python\\Python36-32\\lib\\numpy\\f2py\\f2py2e.py',
   'PYMODULE'),
  ('numpy.distutils.command.build_src',
   'C:\\Users\\Alex\\AppData\\Local\\Programs\\Python\\Python36-32\\lib\\numpy\\distutils\\command\\build_src.py',
   'PYMODULE'),
  ('numpy.distutils.conv_template',
   'C:\\Users\\Alex\\AppData\\Local\\Programs\\Python\\Python36-32\\lib\\numpy\\distutils\\conv_template.py',
   'PYMODULE'),
  ('numpy.distutils.from_template',
   'C:\\Users\\Alex\\AppData\\Local\\Programs\\Python\\Python36-32\\lib\\numpy\\distutils\\from_template.py',
   'PYMODULE'),
  ('numpy.f2py.auxfuncs',
   'C:\\Users\\Alex\\AppData\\Local\\Programs\\Python\\Python36-32\\lib\\numpy\\f2py\\auxfuncs.py',
   'PYMODULE'),
  ('numpy.f2py.f90mod_rules',
   'C:\\Users\\Alex\\AppData\\Local\\Programs\\Python\\Python36-32\\lib\\numpy\\f2py\\f90mod_rules.py',
   'PYMODULE'),
  ('numpy.f2py.rules',
   'C:\\Users\\Alex\\AppData\\Local\\Programs\\Python\\Python36-32\\lib\\numpy\\f2py\\rules.py',
   'PYMODULE'),
  ('numpy.f2py.use_rules',
   'C:\\Users\\Alex\\AppData\\Local\\Programs\\Python\\Python36-32\\lib\\numpy\\f2py\\use_rules.py',
   'PYMODULE'),
  ('numpy.f2py.common_rules',
   'C:\\Users\\Alex\\AppData\\Local\\Programs\\Python\\Python36-32\\lib\\numpy\\f2py\\common_rules.py',
   'PYMODULE'),
  ('numpy.f2py.func2subr',
   'C:\\Users\\Alex\\AppData\\Local\\Programs\\Python\\Python36-32\\lib\\numpy\\f2py\\func2subr.py',
   'PYMODULE'),
  ('numpy.f2py.crackfortran',
   'C:\\Users\\Alex\\AppData\\Local\\Programs\\Python\\Python36-32\\lib\\numpy\\f2py\\crackfortran.py',
   'PYMODULE'),
  ('fileinput',
   'C:\\Users\\Alex\\AppData\\Local\\Programs\\Python\\Python36-32\\lib\\fileinput.py',
   'PYMODULE'),
  ('numpy.f2py.cb_rules',
   'C:\\Users\\Alex\\AppData\\Local\\Programs\\Python\\Python36-32\\lib\\numpy\\f2py\\cb_rules.py',
   'PYMODULE'),
  ('numpy.f2py.capi_maps',
   'C:\\Users\\Alex\\AppData\\Local\\Programs\\Python\\Python36-32\\lib\\numpy\\f2py\\capi_maps.py',
   'PYMODULE'),
  ('numpy.f2py.cfuncs',
   'C:\\Users\\Alex\\AppData\\Local\\Programs\\Python\\Python36-32\\lib\\numpy\\f2py\\cfuncs.py',
   'PYMODULE'),
  ('numpy.f2py.__version__',
   'C:\\Users\\Alex\\AppData\\Local\\Programs\\Python\\Python36-32\\lib\\numpy\\f2py\\__version__.py',
   'PYMODULE'),
  ('numpy.distutils.command.config',
   'C:\\Users\\Alex\\AppData\\Local\\Programs\\Python\\Python36-32\\lib\\numpy\\distutils\\command\\config.py',
   'PYMODULE'),
  ('numpy.distutils.command.autodist',
   'C:\\Users\\Alex\\AppData\\Local\\Programs\\Python\\Python36-32\\lib\\numpy\\distutils\\command\\autodist.py',
   'PYMODULE'),
  ('numpy.distutils.mingw32ccompiler',
   'C:\\Users\\Alex\\AppData\\Local\\Programs\\Python\\Python36-32\\lib\\numpy\\distutils\\mingw32ccompiler.py',
   'PYMODULE'),
  ('distutils.cygwinccompiler',
   'C:\\Users\\Alex\\AppData\\Local\\Programs\\Python\\Python36-32\\lib\\distutils\\cygwinccompiler.py',
   'PYMODULE'),
  ('distutils.command.config',
   'C:\\Users\\Alex\\AppData\\Local\\Programs\\Python\\Python36-32\\lib\\distutils\\command\\config.py',
   'PYMODULE'),
  ('numpy.distutils.exec_command',
   'C:\\Users\\Alex\\AppData\\Local\\Programs\\Python\\Python36-32\\lib\\numpy\\distutils\\exec_command.py',
   'PYMODULE'),
  ('curses',
   'C:\\Users\\Alex\\AppData\\Local\\Programs\\Python\\Python36-32\\lib\\curses\\__init__.py',
   'PYMODULE'),
  ('curses.has_key',
   'C:\\Users\\Alex\\AppData\\Local\\Programs\\Python\\Python36-32\\lib\\curses\\has_key.py',
   'PYMODULE'),
  ('numpy.distutils.core',
   'C:\\Users\\Alex\\AppData\\Local\\Programs\\Python\\Python36-32\\lib\\numpy\\distutils\\core.py',
   'PYMODULE'),
  ('numpy.distutils.numpy_distribution',
   'C:\\Users\\Alex\\AppData\\Local\\Programs\\Python\\Python36-32\\lib\\numpy\\distutils\\numpy_distribution.py',
   'PYMODULE'),
  ('numpy.distutils.extension',
   'C:\\Users\\Alex\\AppData\\Local\\Programs\\Python\\Python36-32\\lib\\numpy\\distutils\\extension.py',
   'PYMODULE'),
  ('distutils.msvccompiler',
   'C:\\Users\\Alex\\AppData\\Local\\Programs\\Python\\Python36-32\\lib\\distutils\\msvccompiler.py',
   'PYMODULE'),
  ('distutils.unixccompiler',
   'C:\\Users\\Alex\\AppData\\Local\\Programs\\Python\\Python36-32\\lib\\distutils\\unixccompiler.py',
   'PYMODULE'),
  ('numpy.distutils.ccompiler',
   'C:\\Users\\Alex\\AppData\\Local\\Programs\\Python\\Python36-32\\lib\\numpy\\distutils\\ccompiler.py',
   'PYMODULE'),
  ('numpy.distutils.lib2def',
   'C:\\Users\\Alex\\AppData\\Local\\Programs\\Python\\Python36-32\\lib\\numpy\\distutils\\lib2def.py',
   'PYMODULE'),
  ('numpy.distutils.log',
   'C:\\Users\\Alex\\AppData\\Local\\Programs\\Python\\Python36-32\\lib\\numpy\\distutils\\log.py',
   'PYMODULE'),
  ('numpy.distutils.__version__',
   'C:\\Users\\Alex\\AppData\\Local\\Programs\\Python\\Python36-32\\lib\\numpy\\distutils\\__version__.py',
   'PYMODULE'),
  ('numpy.testing.noseclasses',
   'C:\\Users\\Alex\\AppData\\Local\\Programs\\Python\\Python36-32\\lib\\numpy\\testing\\noseclasses.py',
   'PYMODULE'),
  ('numpy.testing.utils',
   'C:\\Users\\Alex\\AppData\\Local\\Programs\\Python\\Python36-32\\lib\\numpy\\testing\\utils.py',
   'PYMODULE'),
  ('numpy.core.fromnumeric',
   'C:\\Users\\Alex\\AppData\\Local\\Programs\\Python\\Python36-32\\lib\\numpy\\core\\fromnumeric.py',
   'PYMODULE'),
  ('numpy.core._methods',
   'C:\\Users\\Alex\\AppData\\Local\\Programs\\Python\\Python36-32\\lib\\numpy\\core\\_methods.py',
   'PYMODULE'),
  ('numpy.core.numeric',
   'C:\\Users\\Alex\\AppData\\Local\\Programs\\Python\\Python36-32\\lib\\numpy\\core\\numeric.py',
   'PYMODULE'),
  ('numpy.core.arrayprint',
   'C:\\Users\\Alex\\AppData\\Local\\Programs\\Python\\Python36-32\\lib\\numpy\\core\\arrayprint.py',
   'PYMODULE'),
  ('numpy.core._internal',
   'C:\\Users\\Alex\\AppData\\Local\\Programs\\Python\\Python36-32\\lib\\numpy\\core\\_internal.py',
   'PYMODULE'),
  ('numpy.core.numerictypes',
   'C:\\Users\\Alex\\AppData\\Local\\Programs\\Python\\Python36-32\\lib\\numpy\\core\\numerictypes.py',
   'PYMODULE'),
  ('numpy.lib.utils',
   'C:\\Users\\Alex\\AppData\\Local\\Programs\\Python\\Python36-32\\lib\\numpy\\lib\\utils.py',
   'PYMODULE'),
  ('numpy.matrixlib.defmatrix',
   'C:\\Users\\Alex\\AppData\\Local\\Programs\\Python\\Python36-32\\lib\\numpy\\matrixlib\\defmatrix.py',
   'PYMODULE'),
  ('numpy.dual',
   'C:\\Users\\Alex\\AppData\\Local\\Programs\\Python\\Python36-32\\lib\\numpy\\dual.py',
   'PYMODULE'),
  ('numpy.ma',
   'C:\\Users\\Alex\\AppData\\Local\\Programs\\Python\\Python36-32\\lib\\numpy\\ma\\__init__.py',
   'PYMODULE'),
  ('numpy.ma.extras',
   'C:\\Users\\Alex\\AppData\\Local\\Programs\\Python\\Python36-32\\lib\\numpy\\ma\\extras.py',
   'PYMODULE'),
  ('numpy.lib.index_tricks',
   'C:\\Users\\Alex\\AppData\\Local\\Programs\\Python\\Python36-32\\lib\\numpy\\lib\\index_tricks.py',
   'PYMODULE'),
  ('numpy.lib.stride_tricks',
   'C:\\Users\\Alex\\AppData\\Local\\Programs\\Python\\Python36-32\\lib\\numpy\\lib\\stride_tricks.py',
   'PYMODULE'),
  ('numpy.lib.function_base',
   'C:\\Users\\Alex\\AppData\\Local\\Programs\\Python\\Python36-32\\lib\\numpy\\lib\\function_base.py',
   'PYMODULE'),
  ('numpy.compat.py3k',
   'C:\\Users\\Alex\\AppData\\Local\\Programs\\Python\\Python36-32\\lib\\numpy\\compat\\py3k.py',
   'PYMODULE'),
  ('pathlib',
   'C:\\Users\\Alex\\AppData\\Local\\Programs\\Python\\Python36-32\\lib\\pathlib.py',
   'PYMODULE'),
  ('numpy.lib.twodim_base',
   'C:\\Users\\Alex\\AppData\\Local\\Programs\\Python\\Python36-32\\lib\\numpy\\lib\\twodim_base.py',
   'PYMODULE'),
  ('numpy.ma.core',
   'C:\\Users\\Alex\\AppData\\Local\\Programs\\Python\\Python36-32\\lib\\numpy\\ma\\core.py',
   'PYMODULE'),
  ('numpy.ctypeslib',
   'C:\\Users\\Alex\\AppData\\Local\\Programs\\Python\\Python36-32\\lib\\numpy\\ctypeslib.py',
   'PYMODULE'),
  ('numpy.random',
   'C:\\Users\\Alex\\AppData\\Local\\Programs\\Python\\Python36-32\\lib\\numpy\\random\\__init__.py',
   'PYMODULE'),
  ('numpy.random.info',
   'C:\\Users\\Alex\\AppData\\Local\\Programs\\Python\\Python36-32\\lib\\numpy\\random\\info.py',
   'PYMODULE'),
  ('numpy.polynomial',
   'C:\\Users\\Alex\\AppData\\Local\\Programs\\Python\\Python36-32\\lib\\numpy\\polynomial\\__init__.py',
   'PYMODULE'),
  ('numpy.polynomial.laguerre',
   'C:\\Users\\Alex\\AppData\\Local\\Programs\\Python\\Python36-32\\lib\\numpy\\polynomial\\laguerre.py',
   'PYMODULE'),
  ('numpy.polynomial._polybase',
   'C:\\Users\\Alex\\AppData\\Local\\Programs\\Python\\Python36-32\\lib\\numpy\\polynomial\\_polybase.py',
   'PYMODULE'),
  ('numpy.polynomial.hermite_e',
   'C:\\Users\\Alex\\AppData\\Local\\Programs\\Python\\Python36-32\\lib\\numpy\\polynomial\\hermite_e.py',
   'PYMODULE'),
  ('numpy.polynomial.hermite',
   'C:\\Users\\Alex\\AppData\\Local\\Programs\\Python\\Python36-32\\lib\\numpy\\polynomial\\hermite.py',
   'PYMODULE'),
  ('numpy.polynomial.legendre',
   'C:\\Users\\Alex\\AppData\\Local\\Programs\\Python\\Python36-32\\lib\\numpy\\polynomial\\legendre.py',
   'PYMODULE'),
  ('numpy.polynomial.chebyshev',
   'C:\\Users\\Alex\\AppData\\Local\\Programs\\Python\\Python36-32\\lib\\numpy\\polynomial\\chebyshev.py',
   'PYMODULE'),
  ('numpy.polynomial.polynomial',
   'C:\\Users\\Alex\\AppData\\Local\\Programs\\Python\\Python36-32\\lib\\numpy\\polynomial\\polynomial.py',
   'PYMODULE'),
  ('numpy.polynomial.polyutils',
   'C:\\Users\\Alex\\AppData\\Local\\Programs\\Python\\Python36-32\\lib\\numpy\\polynomial\\polyutils.py',
   'PYMODULE'),
  ('numpy.fft',
   'C:\\Users\\Alex\\AppData\\Local\\Programs\\Python\\Python36-32\\lib\\numpy\\fft\\__init__.py',
   'PYMODULE'),
  ('numpy.fft.helper',
   'C:\\Users\\Alex\\AppData\\Local\\Programs\\Python\\Python36-32\\lib\\numpy\\fft\\helper.py',
   'PYMODULE'),
  ('numpy.fft.fftpack',
   'C:\\Users\\Alex\\AppData\\Local\\Programs\\Python\\Python36-32\\lib\\numpy\\fft\\fftpack.py',
   'PYMODULE'),
  ('numpy.fft.info',
   'C:\\Users\\Alex\\AppData\\Local\\Programs\\Python\\Python36-32\\lib\\numpy\\fft\\info.py',
   'PYMODULE'),
  ('numpy.linalg',
   'C:\\Users\\Alex\\AppData\\Local\\Programs\\Python\\Python36-32\\lib\\numpy\\linalg\\__init__.py',
   'PYMODULE'),
  ('numpy.linalg.linalg',
   'C:\\Users\\Alex\\AppData\\Local\\Programs\\Python\\Python36-32\\lib\\numpy\\linalg\\linalg.py',
   'PYMODULE'),
  ('numpy.linalg.info',
   'C:\\Users\\Alex\\AppData\\Local\\Programs\\Python\\Python36-32\\lib\\numpy\\linalg\\info.py',
   'PYMODULE'),
  ('numpy.lib',
   'C:\\Users\\Alex\\AppData\\Local\\Programs\\Python\\Python36-32\\lib\\numpy\\lib\\__init__.py',
   'PYMODULE'),
  ('numpy.lib._version',
   'C:\\Users\\Alex\\AppData\\Local\\Programs\\Python\\Python36-32\\lib\\numpy\\lib\\_version.py',
   'PYMODULE'),
  ('numpy.lib.arraypad',
   'C:\\Users\\Alex\\AppData\\Local\\Programs\\Python\\Python36-32\\lib\\numpy\\lib\\arraypad.py',
   'PYMODULE'),
  ('numpy.lib.arrayterator',
   'C:\\Users\\Alex\\AppData\\Local\\Programs\\Python\\Python36-32\\lib\\numpy\\lib\\arrayterator.py',
   'PYMODULE'),
  ('numpy.lib.financial',
   'C:\\Users\\Alex\\AppData\\Local\\Programs\\Python\\Python36-32\\lib\\numpy\\lib\\financial.py',
   'PYMODULE'),
  ('numpy.lib.npyio',
   'C:\\Users\\Alex\\AppData\\Local\\Programs\\Python\\Python36-32\\lib\\numpy\\lib\\npyio.py',
   'PYMODULE'),
  ('numpy.ma.mrecords',
   'C:\\Users\\Alex\\AppData\\Local\\Programs\\Python\\Python36-32\\lib\\numpy\\ma\\mrecords.py',
   'PYMODULE'),
  ('numpy.core.records',
   'C:\\Users\\Alex\\AppData\\Local\\Programs\\Python\\Python36-32\\lib\\numpy\\core\\records.py',
   'PYMODULE'),
  ('numpy.lib._iotools',
   'C:\\Users\\Alex\\AppData\\Local\\Programs\\Python\\Python36-32\\lib\\numpy\\lib\\_iotools.py',
   'PYMODULE'),
  ('numpy.lib._datasource',
   'C:\\Users\\Alex\\AppData\\Local\\Programs\\Python\\Python36-32\\lib\\numpy\\lib\\_datasource.py',
   'PYMODULE'),
  ('numpy.lib.format',
   'C:\\Users\\Alex\\AppData\\Local\\Programs\\Python\\Python36-32\\lib\\numpy\\lib\\format.py',
   'PYMODULE'),
  ('numpy.lib.arraysetops',
   'C:\\Users\\Alex\\AppData\\Local\\Programs\\Python\\Python36-32\\lib\\numpy\\lib\\arraysetops.py',
   'PYMODULE'),
  ('numpy.lib.polynomial',
   'C:\\Users\\Alex\\AppData\\Local\\Programs\\Python\\Python36-32\\lib\\numpy\\lib\\polynomial.py',
   'PYMODULE'),
  ('numpy.lib.scimath',
   'C:\\Users\\Alex\\AppData\\Local\\Programs\\Python\\Python36-32\\lib\\numpy\\lib\\scimath.py',
   'PYMODULE'),
  ('numpy.lib.ufunclike',
   'C:\\Users\\Alex\\AppData\\Local\\Programs\\Python\\Python36-32\\lib\\numpy\\lib\\ufunclike.py',
   'PYMODULE'),
  ('numpy.lib.shape_base',
   'C:\\Users\\Alex\\AppData\\Local\\Programs\\Python\\Python36-32\\lib\\numpy\\lib\\shape_base.py',
   'PYMODULE'),
  ('numpy.lib.nanfunctions',
   'C:\\Users\\Alex\\AppData\\Local\\Programs\\Python\\Python36-32\\lib\\numpy\\lib\\nanfunctions.py',
   'PYMODULE'),
  ('numpy.lib.mixins',
   'C:\\Users\\Alex\\AppData\\Local\\Programs\\Python\\Python36-32\\lib\\numpy\\lib\\mixins.py',
   'PYMODULE'),
  ('numpy.lib.type_check',
   'C:\\Users\\Alex\\AppData\\Local\\Programs\\Python\\Python36-32\\lib\\numpy\\lib\\type_check.py',
   'PYMODULE'),
  ('numpy.core.getlimits',
   'C:\\Users\\Alex\\AppData\\Local\\Programs\\Python\\Python36-32\\lib\\numpy\\core\\getlimits.py',
   'PYMODULE'),
  ('numpy.core.machar',
   'C:\\Users\\Alex\\AppData\\Local\\Programs\\Python\\Python36-32\\lib\\numpy\\core\\machar.py',
   'PYMODULE'),
  ('numpy.lib.info',
   'C:\\Users\\Alex\\AppData\\Local\\Programs\\Python\\Python36-32\\lib\\numpy\\lib\\info.py',
   'PYMODULE'),
  ('numpy.compat',
   'C:\\Users\\Alex\\AppData\\Local\\Programs\\Python\\Python36-32\\lib\\numpy\\compat\\__init__.py',
   'PYMODULE'),
  ('numpy.compat._inspect',
   'C:\\Users\\Alex\\AppData\\Local\\Programs\\Python\\Python36-32\\lib\\numpy\\compat\\_inspect.py',
   'PYMODULE'),
  ('numpy.core',
   'C:\\Users\\Alex\\AppData\\Local\\Programs\\Python\\Python36-32\\lib\\numpy\\core\\__init__.py',
   'PYMODULE'),
  ('numpy.core.einsumfunc',
   'C:\\Users\\Alex\\AppData\\Local\\Programs\\Python\\Python36-32\\lib\\numpy\\core\\einsumfunc.py',
   'PYMODULE'),
  ('numpy.core.shape_base',
   'C:\\Users\\Alex\\AppData\\Local\\Programs\\Python\\Python36-32\\lib\\numpy\\core\\shape_base.py',
   'PYMODULE'),
  ('numpy.core.function_base',
   'C:\\Users\\Alex\\AppData\\Local\\Programs\\Python\\Python36-32\\lib\\numpy\\core\\function_base.py',
   'PYMODULE'),
  ('numpy.core.memmap',
   'C:\\Users\\Alex\\AppData\\Local\\Programs\\Python\\Python36-32\\lib\\numpy\\core\\memmap.py',
   'PYMODULE'),
  ('numpy.core.defchararray',
   'C:\\Users\\Alex\\AppData\\Local\\Programs\\Python\\Python36-32\\lib\\numpy\\core\\defchararray.py',
   'PYMODULE'),
  ('numpy.core.info',
   'C:\\Users\\Alex\\AppData\\Local\\Programs\\Python\\Python36-32\\lib\\numpy\\core\\info.py',
   'PYMODULE'),
  ('numpy._distributor_init',
   'C:\\Users\\Alex\\AppData\\Local\\Programs\\Python\\Python36-32\\lib\\numpy\\_distributor_init.py',
   'PYMODULE'),
  ('numpy.testing',
   'C:\\Users\\Alex\\AppData\\Local\\Programs\\Python\\Python36-32\\lib\\numpy\\testing\\__init__.py',
   'PYMODULE'),
  ('numpy.testing.decorators',
   'C:\\Users\\Alex\\AppData\\Local\\Programs\\Python\\Python36-32\\lib\\numpy\\testing\\decorators.py',
   'PYMODULE'),
  ('numpy.add_newdocs',
   'C:\\Users\\Alex\\AppData\\Local\\Programs\\Python\\Python36-32\\lib\\numpy\\add_newdocs.py',
   'PYMODULE'),
  ('numpy._import_tools',
   'C:\\Users\\Alex\\AppData\\Local\\Programs\\Python\\Python36-32\\lib\\numpy\\_import_tools.py',
   'PYMODULE'),
  ('numpy.version',
   'C:\\Users\\Alex\\AppData\\Local\\Programs\\Python\\Python36-32\\lib\\numpy\\version.py',
   'PYMODULE'),
  ('numpy.__config__',
   'C:\\Users\\Alex\\AppData\\Local\\Programs\\Python\\Python36-32\\lib\\numpy\\__config__.py',
   'PYMODULE'),
  ('numpy._globals',
   'C:\\Users\\Alex\\AppData\\Local\\Programs\\Python\\Python36-32\\lib\\numpy\\_globals.py',
   'PYMODULE'),
  ('xlrd',
   'C:\\Users\\Alex\\AppData\\Local\\Programs\\Python\\Python36-32\\lib\\xlrd\\__init__.py',
   'PYMODULE'),
  ('xlrd.xlsx',
   'C:\\Users\\Alex\\AppData\\Local\\Programs\\Python\\Python36-32\\lib\\xlrd\\xlsx.py',
   'PYMODULE'),
  ('xml.etree.cElementTree',
   'C:\\Users\\Alex\\AppData\\Local\\Programs\\Python\\Python36-32\\lib\\xml\\etree\\cElementTree.py',
   'PYMODULE'),
  ('xml.etree',
   'C:\\Users\\Alex\\AppData\\Local\\Programs\\Python\\Python36-32\\lib\\xml\\etree\\__init__.py',
   'PYMODULE'),
  ('xml.etree.ElementPath',
   'C:\\Users\\Alex\\AppData\\Local\\Programs\\Python\\Python36-32\\lib\\xml\\etree\\ElementPath.py',
   'PYMODULE'),
  ('xml.etree.ElementTree',
   'C:\\Users\\Alex\\AppData\\Local\\Programs\\Python\\Python36-32\\lib\\xml\\etree\\ElementTree.py',
   'PYMODULE'),
  ('xml.etree.ElementInclude',
   'C:\\Users\\Alex\\AppData\\Local\\Programs\\Python\\Python36-32\\lib\\xml\\etree\\ElementInclude.py',
   'PYMODULE'),
  ('xlrd.formatting',
   'C:\\Users\\Alex\\AppData\\Local\\Programs\\Python\\Python36-32\\lib\\xlrd\\formatting.py',
   'PYMODULE'),
  ('xlrd.xldate',
   'C:\\Users\\Alex\\AppData\\Local\\Programs\\Python\\Python36-32\\lib\\xlrd\\xldate.py',
   'PYMODULE'),
  ('xlrd.book',
   'C:\\Users\\Alex\\AppData\\Local\\Programs\\Python\\Python36-32\\lib\\xlrd\\book.py',
   'PYMODULE'),
  ('xlrd.compdoc',
   'C:\\Users\\Alex\\AppData\\Local\\Programs\\Python\\Python36-32\\lib\\xlrd\\compdoc.py',
   'PYMODULE'),
  ('xlrd.sheet',
   'C:\\Users\\Alex\\AppData\\Local\\Programs\\Python\\Python36-32\\lib\\xlrd\\sheet.py',
   'PYMODULE'),
  ('xlrd.formula',
   'C:\\Users\\Alex\\AppData\\Local\\Programs\\Python\\Python36-32\\lib\\xlrd\\formula.py',
   'PYMODULE'),
  ('xlrd.biffh',
   'C:\\Users\\Alex\\AppData\\Local\\Programs\\Python\\Python36-32\\lib\\xlrd\\biffh.py',
   'PYMODULE'),
  ('xlrd.timemachine',
   'C:\\Users\\Alex\\AppData\\Local\\Programs\\Python\\Python36-32\\lib\\xlrd\\timemachine.py',
   'PYMODULE'),
  ('xlrd.info',
   'C:\\Users\\Alex\\AppData\\Local\\Programs\\Python\\Python36-32\\lib\\xlrd\\info.py',
   'PYMODULE'),
  ('tools', 'C:\\Users\\Alex\\PycharmProjects\\untitled\\tools.py', 'PYMODULE'),
  ('cost_activation_functions',
   'C:\\Users\\Alex\\PycharmProjects\\untitled\\cost_activation_functions.py',
   'PYMODULE'),
  ('main', 'C:\\Users\\Alex\\PycharmProjects\\untitled\\main.py', 'PYMODULE'),
  ('xlwt',
   'C:\\Users\\Alex\\AppData\\Local\\Programs\\Python\\Python36-32\\lib\\xlwt\\__init__.py',
   'PYMODULE'),
  ('xlwt.Column',
   'C:\\Users\\Alex\\AppData\\Local\\Programs\\Python\\Python36-32\\lib\\xlwt\\Column.py',
   'PYMODULE'),
  ('xlwt.Row',
   'C:\\Users\\Alex\\AppData\\Local\\Programs\\Python\\Python36-32\\lib\\xlwt\\Row.py',
   'PYMODULE'),
  ('xlwt.compat',
   'C:\\Users\\Alex\\AppData\\Local\\Programs\\Python\\Python36-32\\lib\\xlwt\\compat.py',
   'PYMODULE'),
  ('xlwt.Cell',
   'C:\\Users\\Alex\\AppData\\Local\\Programs\\Python\\Python36-32\\lib\\xlwt\\Cell.py',
   'PYMODULE'),
  ('xlwt.Worksheet',
   'C:\\Users\\Alex\\AppData\\Local\\Programs\\Python\\Python36-32\\lib\\xlwt\\Worksheet.py',
   'PYMODULE'),
  ('xlwt.Workbook',
   'C:\\Users\\Alex\\AppData\\Local\\Programs\\Python\\Python36-32\\lib\\xlwt\\Workbook.py',
   'PYMODULE'),
  ('xlwt.CompoundDoc',
   'C:\\Users\\Alex\\AppData\\Local\\Programs\\Python\\Python36-32\\lib\\xlwt\\CompoundDoc.py',
   'PYMODULE'),
  ('xlwt.ExcelFormula',
   'C:\\Users\\Alex\\AppData\\Local\\Programs\\Python\\Python36-32\\lib\\xlwt\\ExcelFormula.py',
   'PYMODULE'),
  ('xlwt.ExcelFormulaLexer',
   'C:\\Users\\Alex\\AppData\\Local\\Programs\\Python\\Python36-32\\lib\\xlwt\\ExcelFormulaLexer.py',
   'PYMODULE'),
  ('xlwt.ExcelFormulaParser',
   'C:\\Users\\Alex\\AppData\\Local\\Programs\\Python\\Python36-32\\lib\\xlwt\\ExcelFormulaParser.py',
   'PYMODULE'),
  ('xlwt.ExcelMagic',
   'C:\\Users\\Alex\\AppData\\Local\\Programs\\Python\\Python36-32\\lib\\xlwt\\ExcelMagic.py',
   'PYMODULE'),
  ('xlwt.UnicodeUtils',
   'C:\\Users\\Alex\\AppData\\Local\\Programs\\Python\\Python36-32\\lib\\xlwt\\UnicodeUtils.py',
   'PYMODULE'),
  ('xlwt.antlr',
   'C:\\Users\\Alex\\AppData\\Local\\Programs\\Python\\Python36-32\\lib\\xlwt\\antlr.py',
   'PYMODULE'),
  ('xlwt.Bitmap',
   'C:\\Users\\Alex\\AppData\\Local\\Programs\\Python\\Python36-32\\lib\\xlwt\\Bitmap.py',
   'PYMODULE'),
  ('xlwt.Utils',
   'C:\\Users\\Alex\\AppData\\Local\\Programs\\Python\\Python36-32\\lib\\xlwt\\Utils.py',
   'PYMODULE'),
  ('xlwt.Style',
   'C:\\Users\\Alex\\AppData\\Local\\Programs\\Python\\Python36-32\\lib\\xlwt\\Style.py',
   'PYMODULE'),
  ('xlwt.Formatting',
   'C:\\Users\\Alex\\AppData\\Local\\Programs\\Python\\Python36-32\\lib\\xlwt\\Formatting.py',
   'PYMODULE'),
  ('xlwt.BIFFRecords',
   'C:\\Users\\Alex\\AppData\\Local\\Programs\\Python\\Python36-32\\lib\\xlwt\\BIFFRecords.py',
   'PYMODULE'),
  ('neuralnet',
   'C:\\Users\\Alex\\PycharmProjects\\untitled\\neuralnet.py',
   'PYMODULE'),
  ('tkinter.ttk',
   'C:\\Users\\Alex\\AppData\\Local\\Programs\\Python\\Python36-32\\lib\\tkinter\\ttk.py',
   'PYMODULE'),
  ('tkinter',
   'C:\\Users\\Alex\\AppData\\Local\\Programs\\Python\\Python36-32\\lib\\tkinter\\__init__.py',
   'PYMODULE'),
  ('setuptools\\cli-32.exe',
   'C:\\Users\\Alex\\PycharmProjects\\untitled\\build\\gui\\setuptools-28.8.0-py3.6.egg\\setuptools\\cli-32.exe',
   'DATA'),
  ('setuptools\\cli-64.exe',
   'C:\\Users\\Alex\\PycharmProjects\\untitled\\build\\gui\\setuptools-28.8.0-py3.6.egg\\setuptools\\cli-64.exe',
   'DATA'),
  ('setuptools\\cli.exe',
   'C:\\Users\\Alex\\PycharmProjects\\untitled\\build\\gui\\setuptools-28.8.0-py3.6.egg\\setuptools\\cli.exe',
   'DATA'),
  ('setuptools\\gui-32.exe',
   'C:\\Users\\Alex\\PycharmProjects\\untitled\\build\\gui\\setuptools-28.8.0-py3.6.egg\\setuptools\\gui-32.exe',
   'DATA'),
  ('setuptools\\gui-64.exe',
   'C:\\Users\\Alex\\PycharmProjects\\untitled\\build\\gui\\setuptools-28.8.0-py3.6.egg\\setuptools\\gui-64.exe',
   'DATA'),
  ('setuptools\\gui.exe',
   'C:\\Users\\Alex\\PycharmProjects\\untitled\\build\\gui\\setuptools-28.8.0-py3.6.egg\\setuptools\\gui.exe',
   'DATA'),
  ('setuptools\\script (dev).tmpl',
   'C:\\Users\\Alex\\PycharmProjects\\untitled\\build\\gui\\setuptools-28.8.0-py3.6.egg\\setuptools\\script '
   '(dev).tmpl',
   'DATA'),
  ('setuptools\\script.tmpl',
   'C:\\Users\\Alex\\PycharmProjects\\untitled\\build\\gui\\setuptools-28.8.0-py3.6.egg\\setuptools\\script.tmpl',
   'DATA'),
  ('setuptools\\command\\launcher manifest.xml',
   'C:\\Users\\Alex\\PycharmProjects\\untitled\\build\\gui\\setuptools-28.8.0-py3.6.egg\\setuptools\\command\\launcher '
   'manifest.xml',
   'DATA')])
